waveform/connect.vcd
$date
	Fri Sep 12 23:17:31 2025
$end
$version
	Icarus Verilog
$end
$timescale
	1s
$end
$scope module tb $end
$var wire 32 ! fi_o_instr_fetch [31:0] $end
$var wire 1 " ds_o_stall $end
$var wire 32 # ds_o_pc [31:0] $end
$var wire 11 $ ds_o_opcode [10:0] $end
$var wire 32 % ds_o_imm [31:0] $end
$var wire 3 & ds_o_funct3 [2:0] $end
$var wire 1 ' ds_o_flush $end
$var wire 1 ( ds_o_ce $end
$var wire 14 ) ds_o_alu [13:0] $end
$var wire 5 * ds_o_addr_rs2_p [4:0] $end
$var wire 5 + ds_o_addr_rs1_p [4:0] $end
$var wire 5 , ds_o_addr_rd_p [4:0] $end
$var wire 32 - ds_data_out_rs2 [31:0] $end
$var wire 32 . ds_data_out_rs1 [31:0] $end
$var parameter 32 / AWIDTH $end
$var parameter 32 0 AWIDTH_INSTR $end
$var parameter 32 1 DEPTH $end
$var parameter 32 2 DWIDTH $end
$var parameter 32 3 FUNCT_WIDTH $end
$var parameter 32 4 IWIDTH $end
$var parameter 32 5 PC_WIDTH $end
$var reg 1 6 c_clk $end
$var reg 1 7 c_rst $end
$var reg 32 8 ds_data_in_rd [31:0] $end
$var reg 1 9 ds_we $end
$var reg 1 : fi_i_ce $end
$var reg 1 ; fi_i_flush $end
$var reg 1 < fi_i_stall $end
$var integer 32 = i [31:0] $end
$scope module cn $end
$var wire 1 6 c_clk $end
$var wire 1 7 c_rst $end
$var wire 32 > ds_data_in_rd [31:0] $end
$var wire 1 9 ds_we $end
$var wire 32 ? fi_alu_pc_value [31:0] $end
$var wire 1 @ fi_change_pc $end
$var wire 1 : fi_i_ce $end
$var wire 1 ; fi_i_flush $end
$var wire 1 < fi_i_stall $end
$var wire 32 A fi_pc [31:0] $end
$var wire 1 B fi_o_stall $end
$var wire 32 C fi_o_instr_fetch [31:0] $end
$var wire 1 D fi_o_flush $end
$var wire 1 E fi_o_ce $end
$var wire 32 F fi_o_addr_instr [31:0] $end
$var wire 1 " ds_o_stall $end
$var wire 32 G ds_o_pc [31:0] $end
$var wire 11 H ds_o_opcode [10:0] $end
$var wire 32 I ds_o_imm [31:0] $end
$var wire 3 J ds_o_funct3 [2:0] $end
$var wire 1 ' ds_o_flush $end
$var wire 4 K ds_o_exception [3:0] $end
$var wire 1 ( ds_o_ce $end
$var wire 14 L ds_o_alu [13:0] $end
$var wire 5 M ds_o_addr_rs2_p [4:0] $end
$var wire 5 N ds_o_addr_rs1_p [4:0] $end
$var wire 5 O ds_o_addr_rd_p [4:0] $end
$var wire 32 P ds_data_out_rs2 [31:0] $end
$var wire 32 Q ds_data_out_rs1 [31:0] $end
$var parameter 32 R AWIDTH $end
$var parameter 32 S AWIDTH_INSTR $end
$var parameter 32 T DEPTH $end
$var parameter 32 U DWIDTH $end
$var parameter 32 V FUNCT_WIDTH $end
$var parameter 32 W IWIDTH $end
$var parameter 32 X PC_WIDTH $end
$scope module ds $end
$var wire 1 6 ds_clk $end
$var wire 32 Y ds_data_in_rd [31:0] $end
$var wire 1 7 ds_rst $end
$var wire 1 9 ds_we $end
$var wire 1 " ds_o_stall $end
$var wire 32 Z ds_o_pc [31:0] $end
$var wire 11 [ ds_o_opcode [10:0] $end
$var wire 32 \ ds_o_imm [31:0] $end
$var wire 3 ] ds_o_funct3 [2:0] $end
$var wire 1 ' ds_o_flush $end
$var wire 4 ^ ds_o_exception [3:0] $end
$var wire 1 ( ds_o_ce $end
$var wire 14 _ ds_o_alu [13:0] $end
$var wire 5 ` ds_o_addr_rs2_p [4:0] $end
$var wire 5 a ds_o_addr_rs2 [4:0] $end
$var wire 5 b ds_o_addr_rs1_p [4:0] $end
$var wire 5 c ds_o_addr_rs1 [4:0] $end
$var wire 5 d ds_o_addr_rd_p [4:0] $end
$var wire 5 e ds_o_addr_rd [4:0] $end
$var wire 1 B ds_i_stall $end
$var wire 32 f ds_i_pc [31:0] $end
$var wire 32 g ds_i_instr [31:0] $end
$var wire 1 D ds_i_flush $end
$var wire 1 E ds_i_ce $end
$var wire 32 h ds_data_out_rs2 [31:0] $end
$var wire 32 i ds_data_out_rs1 [31:0] $end
$var parameter 32 j AWIDTH $end
$var parameter 32 k DWIDTH $end
$var parameter 32 l FUNCT_WIDTH $end
$var parameter 32 m IWIDTH $end
$var parameter 32 n PC_WIDTH $end
$scope module d $end
$var wire 1 6 d_clk $end
$var wire 5 o d_o_addr_rd [4:0] $end
$var wire 5 p d_o_addr_rs1 [4:0] $end
$var wire 5 q d_o_addr_rs2 [4:0] $end
$var wire 1 ' d_o_flush $end
$var wire 1 " d_o_stall $end
$var wire 1 7 d_rst $end
$var wire 1 r stall_bit $end
$var wire 1 B d_i_stall $end
$var wire 32 s d_i_pc [31:0] $end
$var wire 32 t d_i_instr [31:0] $end
$var wire 1 D d_i_flush $end
$var wire 1 E d_i_ce $end
$var parameter 32 u AWIDTH $end
$var parameter 32 v DWIDTH $end
$var parameter 32 w FUNCT_WIDTH $end
$var parameter 32 x IWIDTH $end
$var parameter 32 y PC_WIDTH $end
$var reg 1 z alu_add_d $end
$var reg 1 { alu_and_d $end
$var reg 1 | alu_eq_d $end
$var reg 1 } alu_ge_d $end
$var reg 1 ~ alu_geu_d $end
$var reg 1 !" alu_lt_d $end
$var reg 1 "" alu_ltu_d $end
$var reg 1 #" alu_neq_d $end
$var reg 1 $" alu_or_d $end
$var reg 1 %" alu_sll_d $end
$var reg 1 &" alu_slt_d $end
$var reg 1 '" alu_sltu_d $end
$var reg 1 (" alu_sra_d $end
$var reg 1 )" alu_srl_d $end
$var reg 1 *" alu_sub_d $end
$var reg 1 +" alu_xor_d $end
$var reg 5 ," d_o_addr_rd_p [4:0] $end
$var reg 5 -" d_o_addr_rs1_p [4:0] $end
$var reg 5 ." d_o_addr_rs2_p [4:0] $end
$var reg 14 /" d_o_alu [13:0] $end
$var reg 1 ( d_o_ce $end
$var reg 4 0" d_o_exception [3:0] $end
$var reg 3 1" d_o_funct3 [2:0] $end
$var reg 32 2" d_o_imm [31:0] $end
$var reg 11 3" d_o_opcode [10:0] $end
$var reg 32 4" d_o_pc [31:0] $end
$var reg 3 5" funct3 [2:0] $end
$var reg 1 6" illegal_check $end
$var reg 32 7" imm_d [31:0] $end
$var reg 7 8" opcode [6:0] $end
$var reg 1 9" opcode_auipc_d $end
$var reg 1 :" opcode_branch_d $end
$var reg 1 ;" opcode_fence_d $end
$var reg 1 <" opcode_itype_d $end
$var reg 1 =" opcode_jal_d $end
$var reg 1 >" opcode_jalr_d $end
$var reg 1 ?" opcode_load_word_d $end
$var reg 1 @" opcode_lui_d $end
$var reg 1 A" opcode_rtype_d $end
$var reg 1 B" opcode_store_word_d $end
$var reg 1 C" opcode_system_d $end
$var reg 1 D" system_exception $end
$var reg 5 E" temp_addr_rd [4:0] $end
$var reg 5 F" temp_addr_rs1 [4:0] $end
$var reg 5 G" temp_addr_rs2 [4:0] $end
$var reg 1 H" valid_opcode $end
$upscope $end
$scope module re $end
$var wire 5 I" r_addr_rd [4:0] $end
$var wire 5 J" r_addr_rs1 [4:0] $end
$var wire 5 K" r_addr_rs2 [4:0] $end
$var wire 1 6 r_clk $end
$var wire 32 L" r_data_rd [31:0] $end
$var wire 1 7 r_rst $end
$var wire 1 M" r_wb $end
$var wire 1 9 r_we $end
$var parameter 32 N" AWIDTH $end
$var parameter 37 O" DEPTH $end
$var parameter 32 P" DWIDTH $end
$var reg 32 Q" r_data_out_rs1 [31:0] $end
$var reg 32 R" r_data_out_rs2 [31:0] $end
$var integer 32 S" i [31:0] $end
$upscope $end
$upscope $end
$scope module fi $end
$var wire 32 T" fi_alu_pc_value [31:0] $end
$var wire 1 @ fi_change_pc $end
$var wire 1 6 fi_clk $end
$var wire 1 : fi_i_ce $end
$var wire 1 ; fi_i_flush $end
$var wire 1 < fi_i_stall $end
$var wire 1 7 fi_rst $end
$var wire 32 U" fi_pc [31:0] $end
$var wire 1 B fi_o_stall $end
$var wire 1 V" fi_o_last $end
$var wire 32 W" fi_o_instr_mem [31:0] $end
$var wire 32 X" fi_o_instr_fetch [31:0] $end
$var wire 1 D fi_o_flush $end
$var wire 1 E fi_o_ce $end
$var wire 32 Y" fi_o_addr_instr [31:0] $end
$var wire 1 Z" fi_o_ack $end
$var wire 1 [" fi_i_syn $end
$var parameter 32 \" AWIDTH_INSTR $end
$var parameter 32 ]" DEPTH $end
$var parameter 32 ^" IWIDTH $end
$var parameter 32 _" PC_WIDTH $end
$scope module f $end
$var wire 32 `" f_alu_pc_value [31:0] $end
$var wire 1 @ f_change_pc $end
$var wire 1 6 f_clk $end
$var wire 1 : f_i_ce $end
$var wire 1 ; f_i_flush $end
$var wire 1 < f_i_stall $end
$var wire 1 7 f_rst $end
$var wire 1 a" stall $end
$var wire 1 V" f_i_last $end
$var wire 32 b" f_i_instr [31:0] $end
$var wire 1 Z" f_i_ack $end
$var parameter 32 c" AWIDTH_INSTR $end
$var parameter 32 d" IWIDTH $end
$var parameter 32 e" PC_WIDTH $end
$var reg 1 f" ce $end
$var reg 1 g" ce_d $end
$var reg 32 h" f_o_addr_instr [31:0] $end
$var reg 1 E f_o_ce $end
$var reg 1 D f_o_flush $end
$var reg 32 i" f_o_instr [31:0] $end
$var reg 1 B f_o_stall $end
$var reg 1 [" f_o_syn $end
$var reg 1 j" f_o_syn_r $end
$var reg 32 k" f_pc [31:0] $end
$var reg 1 l" init_done $end
$var reg 32 m" issued_pc [31:0] $end
$var reg 1 n" req $end
$var reg 1 o" temp_ack $end
$var reg 1 p" temp_last $end
$upscope $end
$scope module t $end
$var wire 1 6 t_clk $end
$var wire 1 [" t_i_syn $end
$var wire 1 7 t_rst $end
$var parameter 32 q" DEPTH $end
$var parameter 32 r" DWIDTH $end
$var parameter 32 s" IWIDTH $end
$var reg 1 Z" t_o_ack $end
$var reg 32 t" t_o_instr [31:0] $end
$var reg 1 V" t_o_last $end
$var integer 32 u" counter [31:0] $end
$upscope $end
$upscope $end
$upscope $end
$scope task display $end
$var integer 32 v" counter [31:0] $end
$upscope $end
$scope task reset $end
$var integer 32 w" counter [31:0] $end
$upscope $end
$upscope $end
$enddefinitions $end
$comment Show the parameter values. $end
$dumpall
b100000 s"
b100000 r"
b100100 q"
b100000 e"
b100000 d"
b100000 c"
b100000 _"
b100000 ^"
b100100 ]"
b100000 \"
b100000 P"
b100000 O"
b101 N"
b100000 y
b100000 x
b11 w
b100000 v
b101 u
b100000 n
b100000 m
b11 l
b100000 k
b101 j
b100000 X
b100000 W
b11 V
b100000 U
b100100 T
b100000 S
b101 R
b100000 5
b100000 4
b11 3
b100000 2
b100100 1
b100000 0
b101 /
$end
#0
$dumpvars
b10 w"
bx v"
b0 u"
b0 t"
0p"
0o"
0n"
b0 m"
0l"
b0 k"
0j"
b0 i"
b0 h"
0g"
0f"
b0 b"
0a"
bz `"
0["
0Z"
b0 Y"
b0 X"
b0 W"
0V"
b0 U"
bz T"
b100000 S"
b0 R"
b0 Q"
0M"
b0 L"
b0 K"
b0 J"
b0 I"
0H"
b0 G"
b0 F"
b0 E"
0D"
0C"
0B"
0A"
0@"
0?"
0>"
0="
0<"
0;"
0:"
09"
b0 8"
b0 7"
16"
b0 5"
b0 4"
b0 3"
bx 2"
bx 1"
b0 0"
b0 /"
b0 ."
b0 -"
b0 ,"
0+"
0*"
0)"
0("
0'"
0&"
0%"
0$"
0#"
0""
0!"
0~
0}
0|
0{
1z
b0 t
b0 s
0r
b0 q
b0 p
b0 o
b0 i
b0 h
b0 g
b0 f
b0 e
b0 d
b0 c
b0 b
b0 a
b0 `
b0 _
b0 ^
bx ]
bx \
b0 [
b0 Z
b0 Y
b0 Q
b0 P
b0 O
b0 N
b0 M
b0 L
b0 K
bx J
bx I
b0 H
b0 G
b0 F
0E
0D
b0 C
0B
b0 A
z@
bz ?
b0 >
b0 =
0<
0;
0:
09
b0 8
07
06
b0 .
b0 -
b0 ,
b0 +
b0 *
b0 )
0(
0'
bx &
bx %
b0 $
b0 #
0"
b0 !
$end
#5
06"
b100000 S"
16
#10
06
#15
1l"
17
16
#20
06
#25
19
16
#30
06
#35
b1 8
b1 >
b1 Y
b1 L"
b1 =
16
#40
06
#45
b10 8
b10 >
b10 Y
b10 L"
b10 =
16
#50
06
#55
b11 8
b11 >
b11 Y
b11 L"
b11 =
16
#60
06
#65
b100 8
b100 >
b100 Y
b100 L"
b100 =
16
#70
06
#75
b101 =
16
#80
06
#85
b100 A
b100 f
b100 s
b100 U"
b100 k"
1["
1n"
b0 =
1:
b100101 v"
09
16
#90
06
#95
b1 e
b1 o
b1 E"
b10 c
b10 p
b10 F"
b11 a
b11 q
b11 G"
1H"
1A"
1z
b110011 8"
b1000 m"
b1000 A
b1000 f
b1000 s
b1000 U"
b1000 k"
b1100010000000010110011 !
b1100010000000010110011 C
b1100010000000010110011 g
b1100010000000010110011 t
b1100010000000010110011 X"
b1100010000000010110011 i"
1o"
b1 u"
1Z"
b1100010000000010110011 W"
b1100010000000010110011 b"
b1100010000000010110011 t"
1j"
b1 =
16
#100
06
#105
1*"
0z
b100 e
b100 o
b100 E"
b110 a
b110 q
b110 G"
b101 c
b101 p
b101 F"
1g"
b1100 m"
b1100 A
b1100 f
b1100 s
b1100 U"
b1100 k"
b1000000011000101000001000110011 !
b1000000011000101000001000110011 C
b1000000011000101000001000110011 g
b1000000011000101000001000110011 t
b1000000011000101000001000110011 X"
b1000000011000101000001000110011 i"
b1000 F
b1000 Y"
b1000 h"
1f"
b10 u"
b1000000011000101000001000110011 W"
b1000000011000101000001000110011 b"
b1000000011000101000001000110011 t"
b10 =
16
#110
06
#115
1&"
b10 5"
0*"
b111 e
b111 o
b111 E"
b1001 a
b1001 q
b1001 G"
b1000 c
b1000 p
b1000 F"
b10000 m"
b10000 A
b10000 f
b10000 s
b10000 U"
b10000 k"
b100101000010001110110011 !
b100101000010001110110011 C
b100101000010001110110011 g
b100101000010001110110011 t
b100101000010001110110011 X"
b100101000010001110110011 i"
b1100 F
b1100 Y"
b1100 h"
b11 u"
b100101000010001110110011 W"
b100101000010001110110011 b"
b100101000010001110110011 t"
1E
b11 =
16
#120
06
#125
1'"
0&"
b11 5"
b1010 e
b1010 o
b1010 E"
b1100 a
b1100 q
b1100 G"
b1011 c
b1011 p
b1011 F"
b10100 m"
b10100 A
b10100 f
b10100 s
b10100 U"
b10100 k"
b110001011011010100110011 !
b110001011011010100110011 C
b110001011011010100110011 g
b110001011011010100110011 t
b110001011011010100110011 X"
b110001011011010100110011 i"
b10000 F
b10000 Y"
b10000 h"
1(
b1 $
b1 H
b1 [
b1 3"
b100 )
b100 L
b100 _
b100 /"
b0 %
b0 I
b0 \
b0 2"
b10 &
b10 J
b10 ]
b10 1"
b111 ,
b111 O
b111 d
b111 ,"
b111 I"
b1001 *
b1001 M
b1001 `
b1001 ."
b1001 K"
b1000 +
b1000 N
b1000 b
b1000 -"
b1000 J"
b10000 #
b10000 G
b10000 Z
b10000 4"
b100 u"
b110001011011010100110011 W"
b110001011011010100110011 b"
b110001011011010100110011 t"
b100 =
16
#130
06
#135
1+"
0'"
b100 5"
b1101 e
b1101 o
b1101 E"
b1111 a
b1111 q
b1111 G"
b1110 c
b1110 p
b1110 F"
b11000 m"
b11000 A
b11000 f
b11000 s
b11000 U"
b11000 k"
b111101110100011010110011 !
b111101110100011010110011 C
b111101110100011010110011 g
b111101110100011010110011 t
b111101110100011010110011 X"
b111101110100011010110011 i"
b10100 F
b10100 Y"
b10100 h"
b101 u"
b111101110100011010110011 W"
b111101110100011010110011 b"
b111101110100011010110011 t"
b1000 )
b1000 L
b1000 _
b1000 /"
b11 &
b11 J
b11 ]
b11 1"
b1010 ,
b1010 O
b1010 d
b1010 ,"
b1010 I"
b1100 *
b1100 M
b1100 `
b1100 ."
b1100 K"
b1011 +
b1011 N
b1011 b
b1011 -"
b1011 J"
b10100 #
b10100 G
b10100 Z
b10100 4"
b101 =
16
#140
06
#145
16"
0+"
b110 5"
b10000 e
b10000 o
b10000 E"
b10010 a
b10010 q
b10010 G"
b10001 c
b10001 p
b10001 F"
b11100 m"
b11100 A
b11100 f
b11100 s
b11100 U"
b11100 k"
b1001010001110100000110011 !
b1001010001110100000110011 C
b1001010001110100000110011 g
b1001010001110100000110011 t
b1001010001110100000110011 X"
b1001010001110100000110011 i"
b11000 F
b11000 Y"
b11000 h"
b10000 )
b10000 L
b10000 _
b10000 /"
b100 &
b100 J
b100 ]
b100 1"
b1101 ,
b1101 O
b1101 d
b1101 ,"
b1101 I"
b1111 *
b1111 M
b1111 `
b1111 ."
b1111 K"
b1110 +
b1110 N
b1110 b
b1110 -"
b1110 J"
b11000 #
b11000 G
b11000 Z
b11000 4"
b110 u"
b1001010001110100000110011 W"
b1001010001110100000110011 b"
b1001010001110100000110011 t"
b110 =
16
#150
06
#155
1r
1"
16"
b111 5"
b10011 e
b10011 o
b10011 E"
b10101 a
b10101 q
b10101 G"
b10100 c
b10100 p
b10100 F"
b100000 m"
b100000 A
b100000 f
b100000 s
b100000 U"
b100000 k"
b1010110100111100110110011 !
b1010110100111100110110011 C
b1010110100111100110110011 g
b1010110100111100110110011 t
b1010110100111100110110011 X"
b1010110100111100110110011 i"
b11100 F
b11100 Y"
b11100 h"
b111 u"
b1010110100111100110110011 W"
b1010110100111100110110011 b"
b1010110100111100110110011 t"
b1 K
b1 ^
b1 0"
b0 )
b0 L
b0 _
b0 /"
b110 &
b110 J
b110 ]
b110 1"
b10000 ,
b10000 O
b10000 d
b10000 ,"
b10000 I"
b10010 *
b10010 M
b10010 `
b10010 ."
b10010 K"
b10001 +
b10001 N
b10001 b
b10001 -"
b10001 J"
b11100 #
b11100 G
b11100 Z
b11100 4"
b111 =
16
#160
06
#165
0r
0"
1%"
06"
b1 5"
b10110 e
b10110 o
b10110 E"
b11000 a
b11000 q
b11000 G"
b10111 c
b10111 p
b10111 F"
b100100 m"
b100100 A
b100100 f
b100100 s
b100100 U"
b100100 k"
b1100010111001101100110011 !
b1100010111001101100110011 C
b1100010111001101100110011 g
b1100010111001101100110011 t
b1100010111001101100110011 X"
b1100010111001101100110011 i"
b100000 F
b100000 Y"
b100000 h"
0(
b0 K
b0 ^
b0 0"
b1000 u"
b1100010111001101100110011 W"
b1100010111001101100110011 b"
b1100010111001101100110011 t"
b1000 =
16
#170
06
#175
1)"
0%"
b101 5"
b10011 e
b10011 o
b10011 E"
b11011 a
b11011 q
b11011 G"
b1011 c
b1011 p
b1011 F"
b101000 m"
b101000 A
b101000 f
b101000 s
b101000 U"
b101000 k"
b1101101011101100110110011 !
b1101101011101100110110011 C
b1101101011101100110110011 g
b1101101011101100110110011 t
b1101101011101100110110011 X"
b1101101011101100110110011 i"
b100100 F
b100100 Y"
b100100 h"
b1001 u"
b1101101011101100110110011 W"
b1101101011101100110110011 b"
b1101101011101100110110011 t"
1(
b10000000 )
b10000000 L
b10000000 _
b10000000 /"
b1 &
b1 J
b1 ]
b1 1"
b10110 ,
b10110 O
b10110 d
b10110 ,"
b10110 I"
b11000 *
b11000 M
b11000 `
b11000 ."
b11000 K"
b10111 +
b10111 N
b10111 b
b10111 -"
b10111 J"
b100100 #
b100100 G
b100100 Z
b100100 4"
b1001 =
16
#180
06
#185
1("
0)"
b101 5"
b11101 e
b11101 o
b11101 E"
b11110 a
b11110 q
b11110 G"
b11101 c
b11101 p
b11101 F"
b101100 m"
b101100 A
b101100 f
b101100 s
b101100 U"
b101100 k"
b1000001111011101101111010110011 !
b1000001111011101101111010110011 C
b1000001111011101101111010110011 g
b1000001111011101101111010110011 t
b1000001111011101101111010110011 X"
b1000001111011101101111010110011 i"
b101000 F
b101000 Y"
b101000 h"
b100000000 )
b100000000 L
b100000000 _
b100000000 /"
b101 &
b101 J
b101 ]
b101 1"
b10011 ,
b10011 O
b10011 d
b10011 ,"
b10011 I"
b11011 *
b11011 M
b11011 `
b11011 ."
b11011 K"
b1011 +
b1011 N
b1011 b
b1011 -"
b1011 J"
b101000 #
b101000 G
b101000 Z
b101000 4"
b1010 u"
b1000001111011101101111010110011 W"
b1000001111011101101111010110011 b"
b1000001111011101101111010110011 t"
b1010 =
16
#190
06
#195
1z
b101 7"
1<"
0A"
0("
b0 5"
b10011 8"
b1 e
b1 o
b1 E"
b0 a
b0 q
b0 G"
b10 c
b10 p
b10 F"
b110000 m"
b110000 A
b110000 f
b110000 s
b110000 U"
b110000 k"
b10100010000000010010011 !
b10100010000000010010011 C
b10100010000000010010011 g
b10100010000000010010011 t
b10100010000000010010011 X"
b10100010000000010010011 i"
b101100 F
b101100 Y"
b101100 h"
b1011 u"
b10100010000000010010011 W"
b10100010000000010010011 b"
b10100010000000010010011 t"
b1000000000 )
b1000000000 L
b1000000000 _
b1000000000 /"
b11101 ,
b11101 O
b11101 d
b11101 ,"
b11101 I"
b11110 *
b11110 M
b11110 `
b11110 ."
b11110 K"
b11101 +
b11101 N
b11101 b
b11101 -"
b11101 J"
b101100 #
b101100 G
b101100 Z
b101100 4"
b1011 =
16
#200
06
#205
1&"
b10 5"
0z
b1010 7"
b101 e
b101 o
b101 E"
b100 c
b100 p
b100 F"
b110100 m"
b110100 A
b110100 f
b110100 s
b110100 U"
b110100 k"
b101000100010001010010011 !
b101000100010001010010011 C
b101000100010001010010011 g
b101000100010001010010011 t
b101000100010001010010011 X"
b101000100010001010010011 i"
b110000 F
b110000 Y"
b110000 h"
b10 $
b10 H
b10 [
b10 3"
b1 )
b1 L
b1 _
b1 /"
b101 %
b101 I
b101 \
b101 2"
b0 &
b0 J
b0 ]
b0 1"
b1 ,
b1 O
b1 d
b1 ,"
b1 I"
b0 *
b0 M
b0 `
b0 ."
b0 K"
b10 +
b10 N
b10 b
b10 -"
b10 J"
b110000 #
b110000 G
b110000 Z
b110000 4"
b1100 u"
b101000100010001010010011 W"
b101000100010001010010011 b"
b101000100010001010010011 t"
b1100 =
16
#210
06
#215
1'"
0&"
b1 7"
b11 5"
b110 e
b110 o
b110 E"
b110 c
b110 p
b110 F"
b111000 m"
b111000 A
b111000 f
b111000 s
b111000 U"
b111000 k"
b100110011001100010011 !
b100110011001100010011 C
b100110011001100010011 g
b100110011001100010011 t
b100110011001100010011 X"
b100110011001100010011 i"
b110100 F
b110100 Y"
b110100 h"
b1101 u"
b100110011001100010011 W"
b100110011001100010011 b"
b100110011001100010011 t"
b100 )
b100 L
b100 _
b100 /"
b1010 %
b1010 I
b1010 \
b1010 2"
b10 &
b10 J
b10 ]
b10 1"
b101 ,
b101 O
b101 d
b101 ,"
b101 I"
b100 +
b100 N
b100 b
b100 -"
b100 J"
b110100 #
b110100 G
b110100 Z
b110100 4"
b1101 =
16
#220
06
#225
1+"
0'"
b1111 7"
b100 5"
b111 e
b111 o
b111 E"
b1000 c
b1000 p
b1000 F"
b111100 m"
b111100 A
b111100 f
b111100 s
b111100 U"
b111100 k"
b111101000100001110010011 !
b111101000100001110010011 C
b111101000100001110010011 g
b111101000100001110010011 t
b111101000100001110010011 X"
b111101000100001110010011 i"
b111000 F
b111000 Y"
b111000 h"
b1000 )
b1000 L
b1000 _
b1000 /"
b1 %
b1 I
b1 \
b1 2"
b11 &
b11 J
b11 ]
b11 1"
b110 ,
b110 O
b110 d
b110 ,"
b110 I"
b110 +
b110 N
b110 b
b110 -"
b110 J"
b111000 #
b111000 G
b111000 Z
b111000 4"
b1110 u"
b111101000100001110010011 W"
b111101000100001110010011 b"
b111101000100001110010011 t"
b1110 =
16
#230
06
#235
0+"
b11111111111111111111111111111111 7"
b101 5"
b1101 e
b1101 o
b1101 E"
b1010 c
b1010 p
b1010 F"
b1000000 m"
b1000000 A
b1000000 f
b1000000 s
b1000000 U"
b1000000 k"
b11111111111101010101011010010011 !
b11111111111101010101011010010011 C
b11111111111101010101011010010011 g
b11111111111101010101011010010011 t
b11111111111101010101011010010011 X"
b11111111111101010101011010010011 i"
b111100 F
b111100 Y"
b111100 h"
b1111 u"
b11111111111101010101011010010011 W"
b11111111111101010101011010010011 b"
b11111111111101010101011010010011 t"
b10000 )
b10000 L
b10000 _
b10000 /"
b1111 %
b1111 I
b1111 \
b1111 2"
b100 &
b100 J
b100 ]
b100 1"
b111 ,
b111 O
b111 d
b111 ,"
b111 I"
b1000 +
b1000 N
b1000 b
b1000 -"
b1000 J"
b111100 #
b111100 G
b111100 Z
b111100 4"
b1111 =
16
#240
06
#245
1{
b111 7"
b111 5"
b1100 e
b1100 o
b1100 E"
b1100 c
b1100 p
b1100 F"
b1000100 m"
b1000100 A
b1000100 f
b1000100 s
b1000100 U"
b1000100 k"
b11101100111011000010011 !
b11101100111011000010011 C
b11101100111011000010011 g
b11101100111011000010011 t
b11101100111011000010011 X"
b11101100111011000010011 i"
b1000000 F
b1000000 Y"
b1000000 h"
b0 )
b0 L
b0 _
b0 /"
b11111111111111111111111111111111 %
b11111111111111111111111111111111 I
b11111111111111111111111111111111 \
b11111111111111111111111111111111 2"
b101 &
b101 J
b101 ]
b101 1"
b1101 ,
b1101 O
b1101 d
b1101 ,"
b1101 I"
b1010 +
b1010 N
b1010 b
b1010 -"
b1010 J"
b1000000 #
b1000000 G
b1000000 Z
b1000000 4"
b10000 u"
b11101100111011000010011 W"
b11101100111011000010011 b"
b11101100111011000010011 t"
b10000 =
16
#250
06
#255
1("
1)"
0{
b10 7"
b101 5"
b11011 e
b11011 o
b11011 E"
b11100 c
b11100 p
b11100 F"
b1001000 m"
b1001000 A
b1001000 f
b1001000 s
b1001000 U"
b1001000 k"
b1011100101110110010011 !
b1011100101110110010011 C
b1011100101110110010011 g
b1011100101110110010011 t
b1011100101110110010011 X"
b1011100101110110010011 i"
b1000100 F
b1000100 Y"
b1000100 h"
b10001 u"
b1011100101110110010011 W"
b1011100101110110010011 b"
b1011100101110110010011 t"
b1000000 )
b1000000 L
b1000000 _
b1000000 /"
b111 %
b111 I
b111 \
b111 2"
b111 &
b111 J
b111 ]
b111 1"
b1100 ,
b1100 O
b1100 d
b1100 ,"
b1100 I"
b1100 +
b1100 N
b1100 b
b1100 -"
b1100 J"
b1000100 #
b1000100 G
b1000100 Z
b1000100 4"
b10001 =
16
#260
06
#265
1{
0("
0)"
b11 7"
b111 5"
b10001 e
b10001 o
b10001 E"
b1 c
b1 p
b1 F"
b1001100 m"
b1001100 A
b1001100 f
b1001100 s
b1001100 U"
b1001100 k"
b1100001111100010010011 !
b1100001111100010010011 C
b1100001111100010010011 g
b1100001111100010010011 t
b1100001111100010010011 X"
b1100001111100010010011 i"
b1001000 F
b1001000 Y"
b1001000 h"
b1100000000 )
b1100000000 L
b1100000000 _
b1100000000 /"
b10 %
b10 I
b10 \
b10 2"
b101 &
b101 J
b101 ]
b101 1"
b11011 ,
b11011 O
b11011 d
b11011 ,"
b11011 I"
b11100 +
b11100 N
b11100 b
b11100 -"
b11100 J"
b1001000 #
b1001000 G
b1001000 Z
b1001000 4"
b10010 u"
b1100001111100010010011 W"
b1100001111100010010011 b"
b1100001111100010010011 t"
b10010 =
16
#270
06
#275
1&"
0{
b10000010001 7"
b10 5"
b10 e
b10 o
b10 E"
b101 c
b101 p
b101 F"
b1010000 m"
b1010000 A
b1010000 f
b1010000 s
b1010000 U"
b1010000 k"
b1000001000100101010000100010011 !
b1000001000100101010000100010011 C
b1000001000100101010000100010011 g
b1000001000100101010000100010011 t
b1000001000100101010000100010011 X"
b1000001000100101010000100010011 i"
b1001100 F
b1001100 Y"
b1001100 h"
b10011 u"
b1000001000100101010000100010011 W"
b1000001000100101010000100010011 b"
b1000001000100101010000100010011 t"
b1000000 )
b1000000 L
b1000000 _
b1000000 /"
b11 %
b11 I
b11 \
b11 2"
b111 &
b111 J
b111 ]
b111 1"
b10001 ,
b10001 O
b10001 d
b10001 ,"
b10001 I"
b1 +
b1 N
b1 b
b1 -"
b1 J"
b1001100 #
b1001100 G
b1001100 Z
b1001100 4"
b10011 =
16
#280
06
#285
1z
1?"
0<"
0&"
b10000 7"
b0 5"
b11 8"
b0 e
b0 o
b0 E"
b10 c
b10 p
b10 F"
b1010100 m"
b1010100 A
b1010100 f
b1010100 s
b1010100 U"
b1010100 k"
b1000000010000000000000011 !
b1000000010000000000000011 C
b1000000010000000000000011 g
b1000000010000000000000011 t
b1000000010000000000000011 X"
b1000000010000000000000011 i"
b1010000 F
b1010000 Y"
b1010000 h"
b100 )
b100 L
b100 _
b100 /"
b10000010001 %
b10000010001 I
b10000010001 \
b10000010001 2"
b10 &
b10 J
b10 ]
b10 1"
b10 ,
b10 O
b10 d
b10 ,"
b10 I"
b101 +
b101 N
b101 b
b101 -"
b101 J"
b1010000 #
b1010000 G
b1010000 Z
b1010000 4"
b10100 u"
b1000000010000000000000011 W"
b1000000010000000000000011 b"
b1000000010000000000000011 t"
b10100 =
16
#290
06
#295
b10 5"
b10 e
b10 o
b10 E"
1z
b100000 7"
b100 c
b100 p
b100 F"
b1011000 m"
b1011000 A
b1011000 f
b1011000 s
b1011000 U"
b1011000 k"
b10000000100010000100000011 !
b10000000100010000100000011 C
b10000000100010000100000011 g
b10000000100010000100000011 t
b10000000100010000100000011 X"
b10000000100010000100000011 i"
b1010100 F
b1010100 Y"
b1010100 h"
b10101 u"
b10000000100010000100000011 W"
b10000000100010000100000011 b"
b10000000100010000100000011 t"
b100 $
b100 H
b100 [
b100 3"
b1 )
b1 L
b1 _
b1 /"
b10000 %
b10000 I
b10000 \
b10000 2"
b0 &
b0 J
b0 ]
b0 1"
b0 ,
b0 O
b0 d
b0 ,"
b0 I"
b10 +
b10 N
b10 b
b10 -"
b10 J"
b1010100 #
b1010100 G
b1010100 Z
b1010100 4"
b10101 =
16
#300
06
