waveform/connect_mem.vcd
$date
	Mon Sep 22 03:10:01 2025
$end
$version
	Icarus Verilog
$end
$timescale
	1s
$end
$scope module tb $end
$var wire 32 ! fm_pc_n [31:0] $end
$var wire 1 " fm_o_stall_n $end
$var wire 1 # fm_o_rd_we $end
$var wire 32 $ fm_o_rd_data [31:0] $end
$var wire 5 % fm_o_rd_addr [4:0] $end
$var wire 11 & fm_o_opcode_n [10:0] $end
$var wire 32 ' fm_o_load_data [31:0] $end
$var wire 3 ( fm_o_funct3_n [2:0] $end
$var wire 1 ) fm_o_flush_n $end
$var wire 1 * fm_o_ce_n $end
$var wire 1 + fm_change_pc $end
$var parameter 32 , AWIDTH $end
$var parameter 32 - AWIDTH_INSTR $end
$var parameter 32 . DEPTH $end
$var parameter 32 / DWIDTH $end
$var parameter 32 0 FUNCT_WIDTH $end
$var parameter 32 1 IWIDTH $end
$var parameter 32 2 PC_WIDTH $end
$var reg 1 3 fm_clk $end
$var reg 1 4 fm_i_ce $end
$var reg 1 5 fm_i_flush $end
$var reg 1 6 fm_i_stall $end
$var reg 1 7 fm_rst $end
$var integer 32 8 i [31:0] $end
$scope module cm $end
$var wire 1 3 fm_clk $end
$var wire 1 4 fm_i_ce $end
$var wire 1 5 fm_i_flush $end
$var wire 1 6 fm_i_stall $end
$var wire 1 9 fm_o_rd_we_temp $end
$var wire 1 7 fm_rst $end
$var wire 1 : fm_we_reg $end
$var wire 1 ; fm_stall_alu $end
$var wire 32 < fm_pc_n [31:0] $end
$var wire 1 = fm_o_valid $end
$var wire 1 " fm_o_stall_n $end
$var wire 1 > fm_o_stall $end
$var wire 1 # fm_o_rd_we $end
$var wire 32 ? fm_o_rd_data [31:0] $end
$var wire 5 @ fm_o_rd_addr [4:0] $end
$var wire 11 A fm_o_opcode_n [10:0] $end
$var wire 11 B fm_o_opcode [10:0] $end
$var wire 32 C fm_o_load_data [31:0] $end
$var wire 32 D fm_o_imm [31:0] $end
$var wire 3 E fm_o_funct3_n [2:0] $end
$var wire 3 F fm_o_funct3 [2:0] $end
$var wire 1 ) fm_o_flush_n $end
$var wire 1 G fm_o_flush $end
$var wire 32 H fm_o_data_rs2 [31:0] $end
$var wire 32 I fm_o_data_rs1 [31:0] $end
$var wire 32 J fm_o_data_rd [31:0] $end
$var wire 1 * fm_o_ce_n $end
$var wire 1 K fm_o_ce $end
$var wire 14 L fm_o_alu [13:0] $end
$var wire 5 M fm_o_addr_rs2 [4:0] $end
$var wire 5 N fm_o_addr_rs1 [4:0] $end
$var wire 5 O fm_o_addr_rd [4:0] $end
$var wire 32 P fm_next_pc [31:0] $end
$var wire 1 + fm_change_pc $end
$var wire 32 Q fm_alu_value [31:0] $end
$var parameter 32 R AWIDTH $end
$var parameter 32 S AWIDTH_INSTR $end
$var parameter 32 T DEPTH $end
$var parameter 32 U DWIDTH $end
$var parameter 32 V FUNCT_WIDTH $end
$var parameter 32 W IWIDTH $end
$var parameter 32 X PC_WIDTH $end
$scope module fe $end
$var wire 1 3 fe_clk $end
$var wire 1 4 fe_i_ce $end
$var wire 1 5 fe_i_flush $end
$var wire 1 6 fe_i_stall $end
$var wire 32 Y fe_o_data_rd [31:0] $end
$var wire 1 7 fe_rst $end
$var wire 1 9 fe_we_reg $end
$var wire 1 : fe_we_reg_n $end
$var wire 1 ; fe_stall_alu $end
$var wire 32 Z fe_pc_n [31:0] $end
$var wire 32 [ fe_pc [31:0] $end
$var wire 1 = fe_o_valid $end
$var wire 1 > fe_o_stall_n $end
$var wire 1 \ fe_o_stall $end
$var wire 11 ] fe_o_opcode [10:0] $end
$var wire 32 ^ fe_o_imm [31:0] $end
$var wire 3 _ fe_o_funct3 [2:0] $end
$var wire 1 G fe_o_flush_n $end
$var wire 1 ` fe_o_flush $end
$var wire 32 a fe_o_data_rs2 [31:0] $end
$var wire 32 b fe_o_data_rs1 [31:0] $end
$var wire 1 K fe_o_ce_n $end
$var wire 1 c fe_o_ce $end
$var wire 14 d fe_o_alu [13:0] $end
$var wire 5 e fe_o_addr_rs2 [4:0] $end
$var wire 5 f fe_o_addr_rs1 [4:0] $end
$var wire 5 g fe_o_addr_rd [4:0] $end
$var wire 32 h fe_next_pc [31:0] $end
$var wire 11 i fe_i_opcode [10:0] $end
$var wire 32 j fe_i_instr_fetch [31:0] $end
$var wire 32 k fe_i_imm [31:0] $end
$var wire 3 l fe_i_funct3 [2:0] $end
$var wire 32 m fe_i_data_rs2 [31:0] $end
$var wire 32 n fe_i_data_rs1 [31:0] $end
$var wire 14 o fe_i_alu [13:0] $end
$var wire 5 p fe_i_addr_rs2 [4:0] $end
$var wire 5 q fe_i_addr_rs1 [4:0] $end
$var wire 5 r fe_i_addr_rd [4:0] $end
$var wire 1 + fe_change_pc $end
$var wire 32 s fe_alu_value [31:0] $end
$var wire 32 t ex_data_rd [31:0] $end
$var parameter 32 u AWIDTH $end
$var parameter 32 v AWIDTH_INSTR $end
$var parameter 32 w DEPTH $end
$var parameter 32 x DWIDTH $end
$var parameter 32 y FUNCT_WIDTH $end
$var parameter 32 z IWIDTH $end
$var parameter 32 { PC_WIDTH $end
$scope module c $end
$var wire 1 3 c_clk $end
$var wire 1 7 c_rst $end
$var wire 1 9 ds_we $end
$var wire 32 | fi_alu_pc_value [31:0] $end
$var wire 1 } fi_change_pc $end
$var wire 1 4 fi_i_ce $end
$var wire 1 5 fi_i_flush $end
$var wire 1 6 fi_i_stall $end
$var wire 32 ~ fi_pc [31:0] $end
$var wire 1 !" fi_o_stall $end
$var wire 32 "" fi_o_instr_fetch [31:0] $end
$var wire 1 #" fi_o_flush $end
$var wire 1 $" fi_o_ce $end
$var wire 32 %" fi_o_addr_instr [31:0] $end
$var wire 1 \ ds_o_stall $end
$var wire 32 &" ds_o_pc [31:0] $end
$var wire 11 '" ds_o_opcode [10:0] $end
$var wire 32 (" ds_o_imm [31:0] $end
$var wire 3 )" ds_o_funct3 [2:0] $end
$var wire 1 ` ds_o_flush $end
$var wire 4 *" ds_o_exception [3:0] $end
$var wire 1 c ds_o_ce $end
$var wire 14 +" ds_o_alu [13:0] $end
$var wire 5 ," ds_o_addr_rs2_p [4:0] $end
$var wire 5 -" ds_o_addr_rs1_p [4:0] $end
$var wire 5 ." ds_o_addr_rd_p [4:0] $end
$var wire 32 /" ds_data_out_rs2 [31:0] $end
$var wire 32 0" ds_data_out_rs1 [31:0] $end
$var wire 32 1" ds_data_in_rd [31:0] $end
$var parameter 32 2" AWIDTH $end
$var parameter 32 3" AWIDTH_INSTR $end
$var parameter 32 4" DEPTH $end
$var parameter 32 5" DWIDTH $end
$var parameter 32 6" FUNCT_WIDTH $end
$var parameter 32 7" IWIDTH $end
$var parameter 32 8" PC_WIDTH $end
$scope module ds $end
$var wire 1 3 ds_clk $end
$var wire 1 7 ds_rst $end
$var wire 1 9 ds_we $end
$var wire 1 \ ds_o_stall $end
$var wire 32 9" ds_o_pc [31:0] $end
$var wire 11 :" ds_o_opcode [10:0] $end
$var wire 32 ;" ds_o_imm [31:0] $end
$var wire 3 <" ds_o_funct3 [2:0] $end
$var wire 1 ` ds_o_flush $end
$var wire 4 =" ds_o_exception [3:0] $end
$var wire 1 c ds_o_ce $end
$var wire 14 >" ds_o_alu [13:0] $end
$var wire 5 ?" ds_o_addr_rs2_p [4:0] $end
$var wire 5 @" ds_o_addr_rs2 [4:0] $end
$var wire 5 A" ds_o_addr_rs1_p [4:0] $end
$var wire 5 B" ds_o_addr_rs1 [4:0] $end
$var wire 5 C" ds_o_addr_rd_p [4:0] $end
$var wire 5 D" ds_o_addr_rd [4:0] $end
$var wire 1 !" ds_i_stall $end
$var wire 32 E" ds_i_pc [31:0] $end
$var wire 32 F" ds_i_instr [31:0] $end
$var wire 1 #" ds_i_flush $end
$var wire 1 $" ds_i_ce $end
$var wire 32 G" ds_data_out_rs2 [31:0] $end
$var wire 32 H" ds_data_out_rs1 [31:0] $end
$var wire 32 I" ds_data_in_rd [31:0] $end
$var parameter 32 J" AWIDTH $end
$var parameter 32 K" DWIDTH $end
$var parameter 32 L" FUNCT_WIDTH $end
$var parameter 32 M" IWIDTH $end
$var parameter 32 N" PC_WIDTH $end
$scope module d $end
$var wire 1 3 d_clk $end
$var wire 5 O" d_o_addr_rd [4:0] $end
$var wire 5 P" d_o_addr_rs1 [4:0] $end
$var wire 5 Q" d_o_addr_rs2 [4:0] $end
$var wire 1 ` d_o_flush $end
$var wire 1 \ d_o_stall $end
$var wire 1 7 d_rst $end
$var wire 1 R" stall_bit $end
$var wire 12 S" system_exception [11:0] $end
$var wire 1 !" d_i_stall $end
$var wire 32 T" d_i_pc [31:0] $end
$var wire 32 U" d_i_instr [31:0] $end
$var wire 1 #" d_i_flush $end
$var wire 1 $" d_i_ce $end
$var parameter 32 V" AWIDTH $end
$var parameter 32 W" DWIDTH $end
$var parameter 32 X" FUNCT_WIDTH $end
$var parameter 32 Y" IWIDTH $end
$var parameter 32 Z" PC_WIDTH $end
$var reg 1 [" alu_add_d $end
$var reg 1 \" alu_and_d $end
$var reg 1 ]" alu_eq_d $end
$var reg 1 ^" alu_ge_d $end
$var reg 1 _" alu_geu_d $end
$var reg 1 `" alu_lt_d $end
$var reg 1 a" alu_ltu_d $end
$var reg 1 b" alu_neq_d $end
$var reg 1 c" alu_or_d $end
$var reg 1 d" alu_sll_d $end
$var reg 1 e" alu_slt_d $end
$var reg 1 f" alu_sltu_d $end
$var reg 1 g" alu_sra_d $end
$var reg 1 h" alu_srl_d $end
$var reg 1 i" alu_sub_d $end
$var reg 1 j" alu_xor_d $end
$var reg 5 k" d_o_addr_rd_p [4:0] $end
$var reg 5 l" d_o_addr_rs1_p [4:0] $end
$var reg 5 m" d_o_addr_rs2_p [4:0] $end
$var reg 14 n" d_o_alu [13:0] $end
$var reg 1 c d_o_ce $end
$var reg 4 o" d_o_exception [3:0] $end
$var reg 3 p" d_o_funct3 [2:0] $end
$var reg 32 q" d_o_imm [31:0] $end
$var reg 11 r" d_o_opcode [10:0] $end
$var reg 32 s" d_o_pc [31:0] $end
$var reg 3 t" funct3 [2:0] $end
$var reg 1 u" illegal_check $end
$var reg 32 v" imm_d [31:0] $end
$var reg 7 w" opcode [6:0] $end
$var reg 1 x" opcode_auipc_d $end
$var reg 1 y" opcode_branch_d $end
$var reg 1 z" opcode_fence_d $end
$var reg 1 {" opcode_itype_d $end
$var reg 1 |" opcode_jal_d $end
$var reg 1 }" opcode_jalr_d $end
$var reg 1 ~" opcode_load_word_d $end
$var reg 1 !# opcode_lui_d $end
$var reg 1 "# opcode_rtype_d $end
$var reg 1 ## opcode_store_word_d $end
$var reg 1 $# opcode_system_d $end
$var reg 5 %# temp_addr_rd [4:0] $end
$var reg 5 &# temp_addr_rs1 [4:0] $end
$var reg 5 '# temp_addr_rs2 [4:0] $end
$var reg 1 (# valid_opcode $end
$upscope $end
$scope module re $end
$var wire 5 )# r_addr_rd [4:0] $end
$var wire 5 *# r_addr_rs1 [4:0] $end
$var wire 5 +# r_addr_rs2 [4:0] $end
$var wire 1 3 r_clk $end
$var wire 1 7 r_rst $end
$var wire 1 ,# r_wb $end
$var wire 1 9 r_we $end
$var wire 32 -# r_data_rd [31:0] $end
$var parameter 32 .# AWIDTH $end
$var parameter 37 /# DEPTH $end
$var parameter 32 0# DWIDTH $end
$var reg 32 1# r_data_out_rs1 [31:0] $end
$var reg 32 2# r_data_out_rs2 [31:0] $end
$var integer 32 3# i [31:0] $end
$upscope $end
$upscope $end
$scope module fi $end
$var wire 32 4# fi_alu_pc_value [31:0] $end
$var wire 1 } fi_change_pc $end
$var wire 1 3 fi_clk $end
$var wire 1 4 fi_i_ce $end
$var wire 1 5 fi_i_flush $end
$var wire 1 6 fi_i_stall $end
$var wire 1 7 fi_rst $end
$var wire 32 5# fi_pc [31:0] $end
$var wire 1 !" fi_o_stall $end
$var wire 1 6# fi_o_last $end
$var wire 32 7# fi_o_instr_mem [31:0] $end
$var wire 32 8# fi_o_instr_fetch [31:0] $end
$var wire 1 #" fi_o_flush $end
$var wire 1 $" fi_o_ce $end
$var wire 32 9# fi_o_addr_instr [31:0] $end
$var wire 1 :# fi_o_ack $end
$var wire 1 ;# fi_i_syn $end
$var parameter 32 <# AWIDTH_INSTR $end
$var parameter 32 =# DEPTH $end
$var parameter 32 ># IWIDTH $end
$var parameter 32 ?# PC_WIDTH $end
$scope module f $end
$var wire 32 @# f_alu_pc_value [31:0] $end
$var wire 1 } f_change_pc $end
$var wire 1 3 f_clk $end
$var wire 1 4 f_i_ce $end
$var wire 1 5 f_i_flush $end
$var wire 1 6 f_i_stall $end
$var wire 1 7 f_rst $end
$var wire 1 A# stall $end
$var wire 1 6# f_i_last $end
$var wire 32 B# f_i_instr [31:0] $end
$var wire 1 :# f_i_ack $end
$var parameter 32 C# AWIDTH_INSTR $end
$var parameter 32 D# IWIDTH $end
$var parameter 32 E# PC_WIDTH $end
$var reg 1 F# ce $end
$var reg 1 G# ce_d $end
$var reg 32 H# f_o_addr_instr [31:0] $end
$var reg 1 $" f_o_ce $end
$var reg 1 #" f_o_flush $end
$var reg 32 I# f_o_instr [31:0] $end
$var reg 1 !" f_o_stall $end
$var reg 1 ;# f_o_syn $end
$var reg 1 J# f_o_syn_r $end
$var reg 32 K# f_pc [31:0] $end
$var reg 1 L# init_done $end
$var reg 32 M# issued_pc [31:0] $end
$var reg 1 N# req $end
$var reg 1 O# temp_ack $end
$var reg 1 P# temp_last $end
$upscope $end
$scope module t $end
$var wire 1 3 t_clk $end
$var wire 1 ;# t_i_syn $end
$var wire 1 7 t_rst $end
$var parameter 32 Q# DEPTH $end
$var parameter 32 R# DWIDTH $end
$var parameter 32 S# IWIDTH $end
$var reg 1 :# t_o_ack $end
$var reg 32 T# t_o_instr [31:0] $end
$var reg 1 6# t_o_last $end
$var integer 32 U# counter [31:0] $end
$upscope $end
$upscope $end
$upscope $end
$scope module e $end
$var wire 1 3 ex_clk $end
$var wire 5 V# ex_i_addr_rd [4:0] $end
$var wire 5 W# ex_i_addr_rs1 [4:0] $end
$var wire 5 X# ex_i_addr_rs2 [4:0] $end
$var wire 14 Y# ex_i_alu [13:0] $end
$var wire 1 c ex_i_ce $end
$var wire 32 Z# ex_i_data_rs1 [31:0] $end
$var wire 32 [# ex_i_data_rs2 [31:0] $end
$var wire 1 ` ex_i_flush $end
$var wire 1 \# ex_i_force_stall $end
$var wire 3 ]# ex_i_funct3 [2:0] $end
$var wire 32 ^# ex_i_imm [31:0] $end
$var wire 11 _# ex_i_opcode [10:0] $end
$var wire 32 `# ex_i_pc [31:0] $end
$var wire 1 \ ex_i_stall $end
$var wire 1 7 ex_rst $end
$var wire 1 a# next_stall $end
$var wire 1 b# stall_bit $end
$var wire 32 c# temp_pc [31:0] $end
$var wire 5 d# shamt [4:0] $end
$var wire 32 e# rs2_value [31:0] $end
$var wire 32 f# rs1_value [31:0] $end
$var wire 1 g# op_system $end
$var wire 1 h# op_store $end
$var wire 1 i# op_rtype $end
$var wire 1 j# op_lui $end
$var wire 1 k# op_load $end
$var wire 1 l# op_jalr $end
$var wire 1 m# op_jal $end
$var wire 1 n# op_itype $end
$var wire 1 o# op_fence $end
$var wire 1 p# op_branch $end
$var wire 1 q# op_auipc $end
$var wire 1 r# alu_xor $end
$var wire 1 s# alu_sub $end
$var wire 1 t# alu_srl $end
$var wire 1 u# alu_sra $end
$var wire 1 v# alu_sltu $end
$var wire 1 w# alu_slt $end
$var wire 1 x# alu_sll $end
$var wire 1 y# alu_or $end
$var wire 1 z# alu_neq $end
$var wire 1 {# alu_geu $end
$var wire 1 |# alu_ge $end
$var wire 1 }# alu_eq $end
$var wire 1 ~# alu_and $end
$var wire 1 !$ alu_add $end
$var parameter 32 "$ AWIDTH $end
$var parameter 32 #$ DWIDTH $end
$var parameter 32 $$ FUNCT_WIDTH $end
$var parameter 32 %$ PC_WIDTH $end
$var reg 32 &$ a [31:0] $end
$var reg 32 '$ alu_value [31:0] $end
$var reg 32 ($ b [31:0] $end
$var reg 32 )$ ex_next_pc [31:0] $end
$var reg 5 *$ ex_o_addr_rd [4:0] $end
$var reg 5 +$ ex_o_addr_rs1 [4:0] $end
$var reg 5 ,$ ex_o_addr_rs2 [4:0] $end
$var reg 14 -$ ex_o_alu [13:0] $end
$var reg 32 .$ ex_o_alu_value [31:0] $end
$var reg 1 K ex_o_ce $end
$var reg 1 + ex_o_change_pc $end
$var reg 32 /$ ex_o_data_rd [31:0] $end
$var reg 32 0$ ex_o_data_rs1 [31:0] $end
$var reg 32 1$ ex_o_data_rs2 [31:0] $end
$var reg 1 G ex_o_flush $end
$var reg 3 2$ ex_o_funct3 [2:0] $end
$var reg 32 3$ ex_o_imm [31:0] $end
$var reg 11 4$ ex_o_opcode [10:0] $end
$var reg 32 5$ ex_o_pc [31:0] $end
$var reg 1 > ex_o_stall $end
$var reg 1 = ex_o_valid $end
$var reg 1 : ex_o_we_reg $end
$var reg 1 ; ex_stall_from_alu $end
$var reg 32 6$ temp_data_rd [31:0] $end
$upscope $end
$upscope $end
$scope module ms $end
$var wire 1 3 me_clk $end
$var wire 32 7$ me_i_alu_value [31:0] $end
$var wire 1 K me_i_ce $end
$var wire 1 G me_i_flush $end
$var wire 3 8$ me_i_funct3 [2:0] $end
$var wire 11 9$ me_i_opcode [10:0] $end
$var wire 5 :$ me_i_rd_addr [4:0] $end
$var wire 32 ;$ me_i_rd_data [31:0] $end
$var wire 32 <$ me_i_rs2_data [31:0] $end
$var wire 1 > me_i_stall $end
$var wire 1 ; me_i_stall_from_alu $end
$var wire 1 7 me_rst $end
$var wire 1 : me_we_reg_n $end
$var wire 1 =$ stall_bit $end
$var wire 32 >$ raw [31:0] $end
$var wire 1 ?$ op_store $end
$var wire 1 @$ op_rtype $end
$var wire 1 A$ op_lui $end
$var wire 1 B$ op_load $end
$var wire 1 C$ op_jalr $end
$var wire 1 D$ op_jal $end
$var wire 1 E$ op_itype $end
$var wire 1 F$ op_auipc $end
$var wire 5 G$ mem_addr [4:0] $end
$var wire 32 H$ me_i_load_data [31:0] $end
$var wire 1 I$ me_i_ack $end
$var wire 1 J$ m_i_stall $end
$var wire 2 K$ byte_offset_d [1:0] $end
$var parameter 32 L$ AWIDTH $end
$var parameter 32 M$ DWIDTH $end
$var parameter 32 N$ FUNCT_WIDTH $end
$var reg 4 O$ byte_enable [3:0] $end
$var reg 4 P$ byte_enable_d [3:0] $end
$var reg 2 Q$ byte_off_q [1:0] $end
$var reg 32 R$ final_load [31:0] $end
$var reg 3 S$ funct_q [2:0] $end
$var reg 1 * me_o_ce $end
$var reg 1 T$ me_o_cyc $end
$var reg 1 ) me_o_flush $end
$var reg 3 U$ me_o_funct3 [2:0] $end
$var reg 5 V$ me_o_load_addr [4:0] $end
$var reg 32 W$ me_o_load_data [31:0] $end
$var reg 11 X$ me_o_opcode [10:0] $end
$var reg 1 Y$ me_o_rd $end
$var reg 5 Z$ me_o_rd_addr [4:0] $end
$var reg 32 [$ me_o_rd_data [31:0] $end
$var reg 1 # me_o_rd_we $end
$var reg 1 " me_o_stall $end
$var reg 1 \$ me_o_stb $end
$var reg 5 ]$ me_o_store_addr [4:0] $end
$var reg 32 ^$ me_o_store_data [31:0] $end
$var reg 1 _$ me_o_we $end
$var reg 1 `$ op_load_q $end
$var reg 11 a$ opcode_q [10:0] $end
$var reg 1 b$ pending_request $end
$var reg 5 c$ rd_addr_d [4:0] $end
$var reg 5 d$ rd_addr_q [4:0] $end
$var reg 32 e$ rd_data_d [31:0] $end
$var reg 1 f$ rd_we_d $end
$var reg 32 g$ store_data_aligned [31:0] $end
$var reg 32 h$ store_data_aligned_d [31:0] $end
$var reg 1 i$ temp_pending_request $end
$scope module m $end
$var wire 1 3 m_clk $end
$var wire 4 j$ m_i_byte_enable [3:0] $end
$var wire 1 T$ m_i_cyc $end
$var wire 32 k$ m_i_data_store [31:0] $end
$var wire 5 l$ m_i_load_addr [4:0] $end
$var wire 1 Y$ m_i_rd $end
$var wire 1 \$ m_i_stb $end
$var wire 5 m$ m_i_store_addr [4:0] $end
$var wire 1 _$ m_i_we $end
$var wire 1 7 m_rst $end
$var wire 32 n$ mask [31:0] $end
$var parameter 32 o$ AWIDTH $end
$var parameter 37 p$ DEPTH $end
$var parameter 32 q$ DWIDTH $end
$var reg 32 r$ data_reg [31:0] $end
$var reg 5 s$ load_addr_reg [4:0] $end
$var reg 1 I$ m_o_ack $end
$var reg 32 t$ m_o_read_data [31:0] $end
$var reg 1 J$ m_o_stall $end
$var reg 32 u$ mask_reg [31:0] $end
$var reg 1 v$ rd_reg $end
$var reg 1 w$ req_active $end
$var reg 5 x$ store_addr_reg [4:0] $end
$var reg 1 y$ we_reg $end
$var integer 32 z$ i [31:0] $end
$upscope $end
$upscope $end
$upscope $end
$scope task display $end
$var integer 32 {$ counter [31:0] $end
$upscope $end
$scope task reset $end
$var integer 32 |$ counter [31:0] $end
$upscope $end
$upscope $end
$enddefinitions $end
$comment Show the parameter values. $end
$dumpall
b100000 q$
b100000 p$
b101 o$
b11 N$
b100000 M$
b101 L$
b100000 %$
b11 $$
b100000 #$
b101 "$
b100000 S#
b100000 R#
b100100 Q#
b100000 E#
b100000 D#
b100000 C#
b100000 ?#
b100000 >#
b100100 =#
b100000 <#
b100000 0#
b100000 /#
b101 .#
b100000 Z"
b100000 Y"
b11 X"
b100000 W"
b101 V"
b100000 N"
b100000 M"
b11 L"
b100000 K"
b101 J"
b100000 8"
b100000 7"
b11 6"
b100000 5"
b100100 4"
b100000 3"
b101 2"
b100000 {
b100000 z
b11 y
b100000 x
b100100 w
b100000 v
b101 u
b100000 X
b100000 W
b11 V
b100000 U
b100100 T
b100000 S
b101 R
b100000 2
b100000 1
b11 0
b100000 /
b100100 .
b100000 -
b101 ,
$end
#0
$dumpvars
b10 |$
bx {$
b100000 z$
xy$
bx x$
0w$
xv$
bx u$
b0 t$
bx s$
bx r$
bx n$
b0 m$
b0 l$
b0 k$
bx j$
0i$
b0 h$
bx g$
0f$
b0 e$
b0 d$
b0 c$
0b$
b0 a$
0`$
0_$
b0 ^$
b0 ]$
0\$
b0 [$
b0 Z$
0Y$
b0 X$
b0 W$
b0 V$
b0 U$
0T$
b0 S$
b0 R$
b0 Q$
b0 P$
bx O$
bx K$
0J$
0I$
b0 H$
bx G$
0F$
0E$
0D$
0C$
0B$
0A$
0@$
0?$
b0 >$
0=$
b0 <$
b0 ;$
b0 :$
b0 9$
b0 8$
bx 7$
b0 6$
b0 5$
b0 4$
b0 3$
b0 2$
b0 1$
b0 0$
b0 /$
bx .$
b0 -$
b0 ,$
b0 +$
b0 *$
b0 )$
bx ($
b0 '$
b0 &$
0!$
0~#
0}#
0|#
0{#
0z#
0y#
0x#
0w#
0v#
0u#
0t#
0s#
0r#
0q#
0p#
0o#
0n#
0m#
0l#
0k#
0j#
0i#
0h#
0g#
b0 f#
b0 e#
bx d#
b0 c#
0b#
0a#
b0 `#
b0 _#
bx ^#
bx ]#
z\#
b0 [#
b0 Z#
b0 Y#
b0 X#
b0 W#
b0 V#
b0 U#
b0 T#
0P#
0O#
0N#
b0 M#
0L#
b0 K#
0J#
b0 I#
b0 H#
0G#
0F#
b0 B#
xA#
bz @#
0;#
0:#
b0 9#
b0 8#
b0 7#
06#
b0 5#
bz 4#
b100000 3#
b0 2#
b0 1#
b0 -#
0,#
b0 +#
b0 *#
b0 )#
0(#
b0 '#
b0 &#
b0 %#
0$#
0##
0"#
0!#
0~"
0}"
0|"
0{"
0z"
0y"
0x"
b0 w"
b0 v"
1u"
b0 t"
b0 s"
b0 r"
bx q"
bx p"
b0 o"
b0 n"
b0 m"
b0 l"
b0 k"
0j"
0i"
0h"
0g"
0f"
0e"
0d"
0c"
0b"
0a"
0`"
0_"
0^"
0]"
0\"
1["
b0 U"
b0 T"
b0 S"
0R"
b0 Q"
b0 P"
b0 O"
b0 I"
b0 H"
b0 G"
b0 F"
b0 E"
b0 D"
b0 C"
b0 B"
b0 A"
b0 @"
b0 ?"
b0 >"
b0 ="
bx <"
bx ;"
b0 :"
b0 9"
b0 1"
b0 0"
b0 /"
b0 ."
b0 -"
b0 ,"
b0 +"
b0 *"
bx )"
bx ("
b0 '"
b0 &"
b0 %"
0$"
0#"
b0 ""
0!"
b0 ~
z}
bz |
b0 t
bx s
b0 r
b0 q
b0 p
b0 o
b0 n
b0 m
bx l
bx k
b0 j
b0 i
b0 h
b0 g
b0 f
b0 e
b0 d
0c
b0 b
b0 a
0`
b0 _
b0 ^
b0 ]
0\
b0 [
b0 Z
b0 Y
bx Q
b0 P
b0 O
b0 N
b0 M
b0 L
xK
b0 J
b0 I
b0 H
0G
b0 F
b0 E
b0 D
b0 C
b0 B
b0 A
b0 @
b0 ?
0>
0=
b0 <
0;
0:
09
b0 8
07
x6
x5
04
03
0+
0*
0)
b0 (
b0 '
b0 &
b0 %
b0 $
0#
0"
b0 !
$end
#5
0u"
b100000 z$
b100000 3#
13
#10
03
#15
1L#
0K
x*
17
13
#20
03
#25
0*
b100 ~
b100 E"
b100 T"
b100 5#
b100 K#
1;#
1N#
0A#
14
b1100100 {$
05
06
13
#30
03
#35
b11 S"
b1 D"
b1 O"
b1 %#
b10 B"
b10 P"
b10 &#
b11 @"
b11 Q"
b11 '#
1(#
1"#
1["
b110011 w"
b1000 M#
b1000 ~
b1000 E"
b1000 T"
b1000 5#
b1000 K#
b1100010000000010110011 j
b1100010000000010110011 ""
b1100010000000010110011 F"
b1100010000000010110011 U"
b1100010000000010110011 8#
b1100010000000010110011 I#
1O#
b1 U#
1:#
b1100010000000010110011 7#
b1100010000000010110011 B#
b1100010000000010110011 T#
1J#
13
#40
03
#45
b10000000110 S"
1i"
0["
b100 D"
b100 O"
b100 %#
b110 @"
b110 Q"
b110 '#
b101 B"
b101 P"
b101 &#
1G#
b1100 M#
b1100 ~
b1100 E"
b1100 T"
b1100 5#
b1100 K#
b1000000011000101000001000110011 j
b1000000011000101000001000110011 ""
b1000000011000101000001000110011 F"
b1000000011000101000001000110011 U"
b1000000011000101000001000110011 8#
b1000000011000101000001000110011 I#
b1000 %"
b1000 9#
b1000 H#
1F#
b10 U#
b1000000011000101000001000110011 7#
b1000000011000101000001000110011 B#
b1000000011000101000001000110011 T#
13
#50
03
#55
b1001 S"
1e"
b10 t"
0i"
b111 D"
b111 O"
b111 %#
b1001 @"
b1001 Q"
b1001 '#
b1000 B"
b1000 P"
b1000 &#
b10000 M#
b10000 ~
b10000 E"
b10000 T"
b10000 5#
b10000 K#
b100101000010001110110011 j
b100101000010001110110011 ""
b100101000010001110110011 F"
b100101000010001110110011 U"
b100101000010001110110011 8#
b100101000010001110110011 I#
b1100 %"
b1100 9#
b1100 H#
b11 U#
b100101000010001110110011 7#
b100101000010001110110011 B#
b100101000010001110110011 T#
1$"
b1 8
13
#60
03
#65
b0 d#
b1100 S"
1f"
0e"
b11 t"
b1010 D"
b1010 O"
b1010 %#
b1100 @"
b1100 Q"
b1100 '#
b1011 B"
b1011 P"
b1011 &#
1i#
1w#
b0 ($
b10100 M#
b10100 ~
b10100 E"
b10100 T"
b10100 5#
b10100 K#
b110001011011010100110011 j
b110001011011010100110011 ""
b110001011011010100110011 F"
b110001011011010100110011 U"
b110001011011010100110011 8#
b110001011011010100110011 I#
b10000 %"
b10000 9#
b10000 H#
1c
b1 i
b1 '"
b1 :"
b1 r"
b1 _#
b100 o
b100 +"
b100 >"
b100 n"
b100 Y#
b0 k
b0 ("
b0 ;"
b0 q"
b0 ^#
b10 l
b10 )"
b10 <"
b10 p"
b10 ]#
b111 r
b111 ."
b111 C"
b111 k"
b111 )#
b111 V#
b1001 p
b1001 ,"
b1001 ?"
b1001 m"
b1001 +#
b1001 X#
b1000 q
b1000 -"
b1000 A"
b1000 l"
b1000 *#
b1000 W#
b10000 c#
b10000 [
b10000 &"
b10000 9"
b10000 s"
b10000 `#
b100 U#
b110001011011010100110011 7#
b110001011011010100110011 B#
b110001011011010100110011 T#
13
#70
03
#75
x=$
b1111 S"
1j"
0f"
b100 t"
b1101 D"
b1101 O"
b1101 %#
b1111 @"
b1111 Q"
b1111 '#
b1110 B"
b1110 P"
b1110 &#
b0 G$
b11111111111111111111111111111111 n$
b111 c$
b11000 M#
b11000 ~
b11000 E"
b11000 T"
b11000 5#
b11000 K#
b111101110100011010110011 j
b111101110100011010110011 ""
b111101110100011010110011 F"
b111101110100011010110011 U"
b111101110100011010110011 8#
b111101110100011010110011 I#
b10100 %"
b10100 9#
b10100 H#
1v#
0w#
1f$
b0 K$
b0 g$
b1111 O$
b1111 j$
1@$
b101 U#
b111101110100011010110011 7#
b111101110100011010110011 B#
b111101110100011010110011 T#
b1000 o
b1000 +"
b1000 >"
b1000 n"
b1000 Y#
b11 l
b11 )"
b11 <"
b11 p"
b11 ]#
b1010 r
b1010 ."
b1010 C"
b1010 k"
b1010 )#
b1010 V#
b1100 p
b1100 ,"
b1100 ?"
b1100 m"
b1100 +#
b1100 X#
b1011 q
b1011 -"
b1011 A"
b1011 l"
b1011 *#
b1011 W#
b10100 c#
b10100 [
b10100 &"
b10100 9"
b10100 s"
b10100 `#
1K
1:
1=
x>
b0 Q
b0 s
b0 .$
b0 7$
b1001 M
b1001 e
b1001 ,$
b1000 N
b1000 f
b1000 +$
b10 F
b10 _
b10 2$
b10 8$
b1 B
b1 ]
b1 4$
b1 9$
b100 L
b100 d
b100 -$
b111 O
b111 g
b111 *$
b111 :$
b10000 !
b10000 <
b10000 Z
b10000 5$
b10000 P
b10000 h
b10000 )$
13
#80
03
