waveform/fe_de_ex.vcd
$date
	Sat Sep 06 15:30:00 2025
$end
$version
	Icarus Verilog
$end
$timescale
	1s
$end
$scope module tb $end
$var wire 1 ! fe_we_reg $end
$var wire 1 " fe_stall_alu $end
$var wire 32 # fe_pc_n [31:0] $end
$var wire 1 $ fe_o_valid $end
$var wire 1 % fe_o_stall_n $end
$var wire 11 & fe_o_opcode [10:0] $end
$var wire 32 ' fe_o_imm [31:0] $end
$var wire 3 ( fe_o_funct3 [2:0] $end
$var wire 1 ) fe_o_flush_n $end
$var wire 32 * fe_o_data_rs2 [31:0] $end
$var wire 32 + fe_o_data_rs1 [31:0] $end
$var wire 32 , fe_o_data_rd [31:0] $end
$var wire 1 - fe_o_ce_n $end
$var wire 1 . fe_o_ce $end
$var wire 14 / fe_o_alu [13:0] $end
$var wire 5 0 fe_o_addr_rs2 [4:0] $end
$var wire 5 1 fe_o_addr_rs1 [4:0] $end
$var wire 5 2 fe_o_addr_rd [4:0] $end
$var wire 32 3 fe_next_pc [31:0] $end
$var wire 32 4 fe_alu_value [31:0] $end
$var parameter 32 5 AWIDTH $end
$var parameter 32 6 AWIDTH_INSTR $end
$var parameter 32 7 DEPTH $end
$var parameter 32 8 DWIDTH $end
$var parameter 32 9 FUNCT_WIDTH $end
$var parameter 32 : IWIDTH $end
$var parameter 32 ; PC_WIDTH $end
$var reg 1 < fe_clk $end
$var reg 1 = fe_i_ce $end
$var reg 1 > fe_i_flush $end
$var reg 1 ? fe_i_stall $end
$var reg 1 @ fe_rst $end
$var integer 32 A i [31:0] $end
$scope module fe $end
$var wire 1 < fe_clk $end
$var wire 1 = fe_i_ce $end
$var wire 1 > fe_i_flush $end
$var wire 1 ? fe_i_stall $end
$var wire 1 @ fe_rst $end
$var wire 32 B temp_data_rd [31:0] $end
$var wire 1 ! fe_we_reg $end
$var wire 1 " fe_stall_alu $end
$var wire 32 C fe_pc_n [31:0] $end
$var wire 32 D fe_pc [31:0] $end
$var wire 1 $ fe_o_valid $end
$var wire 1 % fe_o_stall_n $end
$var wire 1 E fe_o_stall $end
$var wire 11 F fe_o_opcode [10:0] $end
$var wire 32 G fe_o_imm [31:0] $end
$var wire 3 H fe_o_funct3 [2:0] $end
$var wire 1 ) fe_o_flush_n $end
$var wire 1 I fe_o_flush $end
$var wire 32 J fe_o_data_rs2 [31:0] $end
$var wire 32 K fe_o_data_rs1 [31:0] $end
$var wire 1 - fe_o_ce_n $end
$var wire 1 . fe_o_ce $end
$var wire 14 L fe_o_alu [13:0] $end
$var wire 5 M fe_o_addr_rs2 [4:0] $end
$var wire 5 N fe_o_addr_rs1 [4:0] $end
$var wire 5 O fe_o_addr_rd [4:0] $end
$var wire 32 P fe_next_pc [31:0] $end
$var wire 11 Q fe_i_opcode [10:0] $end
$var wire 32 R fe_i_instr_fetch [31:0] $end
$var wire 32 S fe_i_imm [31:0] $end
$var wire 3 T fe_i_funct3 [2:0] $end
$var wire 32 U fe_i_data_rs2 [31:0] $end
$var wire 32 V fe_i_data_rs1 [31:0] $end
$var wire 14 W fe_i_alu [13:0] $end
$var wire 5 X fe_i_addr_rs2 [4:0] $end
$var wire 5 Y fe_i_addr_rs1 [4:0] $end
$var wire 5 Z fe_i_addr_rd [4:0] $end
$var wire 1 [ fe_change_pc $end
$var wire 32 \ fe_alu_value [31:0] $end
$var parameter 32 ] AWIDTH $end
$var parameter 32 ^ AWIDTH_INSTR $end
$var parameter 32 _ DEPTH $end
$var parameter 32 ` DWIDTH $end
$var parameter 32 a FUNCT_WIDTH $end
$var parameter 32 b IWIDTH $end
$var parameter 32 c PC_WIDTH $end
$var reg 32 d fe_o_data_rd [31:0] $end
$var reg 5 e temp_addr_rd [4:0] $end
$var reg 1 f temp_ce $end
$var reg 1 g temp_we $end
$scope module c $end
$var wire 1 < c_clk $end
$var wire 1 @ c_rst $end
$var wire 32 h ds_data_in_rd [31:0] $end
$var wire 1 g ds_we $end
$var wire 32 i fi_alu_pc_value [31:0] $end
$var wire 1 j fi_change_pc $end
$var wire 1 = fi_i_ce $end
$var wire 1 > fi_i_flush $end
$var wire 1 ? fi_i_stall $end
$var wire 32 k fi_pc [31:0] $end
$var wire 1 l fi_o_stall $end
$var wire 32 m fi_o_instr_fetch [31:0] $end
$var wire 1 n fi_o_flush $end
$var wire 1 o fi_o_ce $end
$var wire 32 p fi_o_addr_instr [31:0] $end
$var wire 1 E ds_o_stall $end
$var wire 32 q ds_o_pc [31:0] $end
$var wire 11 r ds_o_opcode [10:0] $end
$var wire 32 s ds_o_imm [31:0] $end
$var wire 3 t ds_o_funct3 [2:0] $end
$var wire 1 I ds_o_flush $end
$var wire 4 u ds_o_exception [3:0] $end
$var wire 1 . ds_o_ce $end
$var wire 14 v ds_o_alu [13:0] $end
$var wire 5 w ds_o_addr_rs2_p [4:0] $end
$var wire 5 x ds_o_addr_rs1_p [4:0] $end
$var wire 5 y ds_o_addr_rd_p [4:0] $end
$var wire 32 z ds_data_out_rs2 [31:0] $end
$var wire 32 { ds_data_out_rs1 [31:0] $end
$var parameter 32 | AWIDTH $end
$var parameter 32 } AWIDTH_INSTR $end
$var parameter 32 ~ DEPTH $end
$var parameter 32 !" DWIDTH $end
$var parameter 32 "" FUNCT_WIDTH $end
$var parameter 32 #" IWIDTH $end
$var parameter 32 $" PC_WIDTH $end
$scope module ds $end
$var wire 1 < ds_clk $end
$var wire 32 %" ds_data_in_rd [31:0] $end
$var wire 1 @ ds_rst $end
$var wire 1 g ds_we $end
$var wire 1 E ds_o_stall $end
$var wire 32 &" ds_o_pc [31:0] $end
$var wire 11 '" ds_o_opcode [10:0] $end
$var wire 32 (" ds_o_imm [31:0] $end
$var wire 3 )" ds_o_funct3 [2:0] $end
$var wire 1 I ds_o_flush $end
$var wire 4 *" ds_o_exception [3:0] $end
$var wire 1 . ds_o_ce $end
$var wire 14 +" ds_o_alu [13:0] $end
$var wire 5 ," ds_o_addr_rs2_p [4:0] $end
$var wire 5 -" ds_o_addr_rs2 [4:0] $end
$var wire 5 ." ds_o_addr_rs1_p [4:0] $end
$var wire 5 /" ds_o_addr_rs1 [4:0] $end
$var wire 5 0" ds_o_addr_rd_p [4:0] $end
$var wire 5 1" ds_o_addr_rd [4:0] $end
$var wire 1 l ds_i_stall $end
$var wire 32 2" ds_i_pc [31:0] $end
$var wire 32 3" ds_i_instr [31:0] $end
$var wire 1 n ds_i_flush $end
$var wire 1 o ds_i_ce $end
$var wire 32 4" ds_data_out_rs2 [31:0] $end
$var wire 32 5" ds_data_out_rs1 [31:0] $end
$var parameter 32 6" AWIDTH $end
$var parameter 32 7" DWIDTH $end
$var parameter 32 8" FUNCT_WIDTH $end
$var parameter 32 9" IWIDTH $end
$var parameter 32 :" PC_WIDTH $end
$scope module d $end
$var wire 1 < d_clk $end
$var wire 5 ;" d_o_addr_rd [4:0] $end
$var wire 5 <" d_o_addr_rs1 [4:0] $end
$var wire 5 =" d_o_addr_rs2 [4:0] $end
$var wire 1 I d_o_flush $end
$var wire 1 E d_o_stall $end
$var wire 1 @ d_rst $end
$var wire 1 >" stall_bit $end
$var wire 1 l d_i_stall $end
$var wire 32 ?" d_i_pc [31:0] $end
$var wire 32 @" d_i_instr [31:0] $end
$var wire 1 n d_i_flush $end
$var wire 1 o d_i_ce $end
$var parameter 32 A" AWIDTH $end
$var parameter 32 B" DWIDTH $end
$var parameter 32 C" FUNCT_WIDTH $end
$var parameter 32 D" IWIDTH $end
$var parameter 32 E" PC_WIDTH $end
$var reg 1 F" alu_add_d $end
$var reg 1 G" alu_and_d $end
$var reg 1 H" alu_eq_d $end
$var reg 1 I" alu_ge_d $end
$var reg 1 J" alu_geu_d $end
$var reg 1 K" alu_lt_d $end
$var reg 1 L" alu_ltu_d $end
$var reg 1 M" alu_neq_d $end
$var reg 1 N" alu_or_d $end
$var reg 1 O" alu_sll_d $end
$var reg 1 P" alu_slt_d $end
$var reg 1 Q" alu_sltu_d $end
$var reg 1 R" alu_sra_d $end
$var reg 1 S" alu_srl_d $end
$var reg 1 T" alu_sub_d $end
$var reg 1 U" alu_xor_d $end
$var reg 5 V" d_o_addr_rd_p [4:0] $end
$var reg 5 W" d_o_addr_rs1_p [4:0] $end
$var reg 5 X" d_o_addr_rs2_p [4:0] $end
$var reg 14 Y" d_o_alu [13:0] $end
$var reg 1 . d_o_ce $end
$var reg 4 Z" d_o_exception [3:0] $end
$var reg 3 [" d_o_funct3 [2:0] $end
$var reg 32 \" d_o_imm [31:0] $end
$var reg 11 ]" d_o_opcode [10:0] $end
$var reg 32 ^" d_o_pc [31:0] $end
$var reg 3 _" funct3 [2:0] $end
$var reg 1 `" illegal_check $end
$var reg 32 a" imm_d [31:0] $end
$var reg 7 b" opcode [6:0] $end
$var reg 1 c" opcode_auipc_d $end
$var reg 1 d" opcode_branch_d $end
$var reg 1 e" opcode_fence_d $end
$var reg 1 f" opcode_itype_d $end
$var reg 1 g" opcode_jal_d $end
$var reg 1 h" opcode_jalr_d $end
$var reg 1 i" opcode_load_word_d $end
$var reg 1 j" opcode_lui_d $end
$var reg 1 k" opcode_rtype_d $end
$var reg 1 l" opcode_store_word_d $end
$var reg 1 m" opcode_system_d $end
$var reg 1 n" system_exeption $end
$var reg 5 o" temp_addr_rd [4:0] $end
$var reg 5 p" temp_addr_rs1 [4:0] $end
$var reg 5 q" temp_addr_rs2 [4:0] $end
$var reg 1 r" valid_opcode $end
$upscope $end
$scope module re $end
$var wire 5 s" r_addr_rd [4:0] $end
$var wire 5 t" r_addr_rs1 [4:0] $end
$var wire 5 u" r_addr_rs2 [4:0] $end
$var wire 1 < r_clk $end
$var wire 32 v" r_data_rd [31:0] $end
$var wire 1 @ r_rst $end
$var wire 1 w" r_wb $end
$var wire 1 g r_we $end
$var parameter 32 x" AWIDTH $end
$var parameter 37 y" DEPTH $end
$var parameter 32 z" DWIDTH $end
$var reg 32 {" r_data_out_rs1 [31:0] $end
$var reg 32 |" r_data_out_rs2 [31:0] $end
$var integer 32 }" i [31:0] $end
$upscope $end
$upscope $end
$scope module fi $end
$var wire 32 ~" fi_alu_pc_value [31:0] $end
$var wire 1 j fi_change_pc $end
$var wire 1 < fi_clk $end
$var wire 1 = fi_i_ce $end
$var wire 1 > fi_i_flush $end
$var wire 1 ? fi_i_stall $end
$var wire 1 @ fi_rst $end
$var wire 32 !# fi_pc [31:0] $end
$var wire 1 l fi_o_stall $end
$var wire 1 "# fi_o_last $end
$var wire 32 ## fi_o_instr_mem [31:0] $end
$var wire 32 $# fi_o_instr_fetch [31:0] $end
$var wire 1 n fi_o_flush $end
$var wire 1 o fi_o_ce $end
$var wire 32 %# fi_o_addr_instr [31:0] $end
$var wire 1 &# fi_o_ack $end
$var wire 1 '# fi_i_syn $end
$var parameter 32 (# AWIDTH_INSTR $end
$var parameter 32 )# DEPTH $end
$var parameter 32 *# IWIDTH $end
$var parameter 32 +# PC_WIDTH $end
$scope module f $end
$var wire 32 ,# f_alu_pc_value [31:0] $end
$var wire 1 j f_change_pc $end
$var wire 1 < f_clk $end
$var wire 1 = f_i_ce $end
$var wire 1 > f_i_flush $end
$var wire 1 ? f_i_stall $end
$var wire 1 @ f_rst $end
$var wire 1 -# stall $end
$var wire 1 "# f_i_last $end
$var wire 32 .# f_i_instr [31:0] $end
$var wire 1 &# f_i_ack $end
$var parameter 32 /# AWIDTH_INSTR $end
$var parameter 32 0# IWIDTH $end
$var parameter 32 1# PC_WIDTH $end
$var reg 1 2# ce $end
$var reg 1 3# ce_d $end
$var reg 32 4# f_o_addr_instr [31:0] $end
$var reg 1 o f_o_ce $end
$var reg 1 n f_o_flush $end
$var reg 32 5# f_o_instr [31:0] $end
$var reg 1 l f_o_stall $end
$var reg 1 '# f_o_syn $end
$var reg 1 6# f_o_syn_r $end
$var reg 32 7# f_pc [31:0] $end
$var reg 1 8# init_done $end
$var reg 32 9# issued_pc [31:0] $end
$var reg 1 :# req $end
$var reg 1 ;# temp_ack $end
$var reg 1 <# temp_last $end
$upscope $end
$scope module t $end
$var wire 1 < t_clk $end
$var wire 1 '# t_i_syn $end
$var wire 1 @ t_rst $end
$var parameter 32 =# DEPTH $end
$var parameter 32 ># DWIDTH $end
$var parameter 32 ?# IWIDTH $end
$var reg 1 &# t_o_ack $end
$var reg 32 @# t_o_instr [31:0] $end
$var reg 1 "# t_o_last $end
$var integer 32 A# counter [31:0] $end
$upscope $end
$upscope $end
$upscope $end
$scope module e $end
$var wire 1 < ex_clk $end
$var wire 5 B# ex_i_addr_rd [4:0] $end
$var wire 5 C# ex_i_addr_rs1 [4:0] $end
$var wire 5 D# ex_i_addr_rs2 [4:0] $end
$var wire 14 E# ex_i_alu [13:0] $end
$var wire 1 f ex_i_ce $end
$var wire 32 F# ex_i_data_rs1 [31:0] $end
$var wire 32 G# ex_i_data_rs2 [31:0] $end
$var wire 1 I ex_i_flush $end
$var wire 3 H# ex_i_funct3 [2:0] $end
$var wire 32 I# ex_i_imm [31:0] $end
$var wire 11 J# ex_i_opcode [10:0] $end
$var wire 32 K# ex_i_pc [31:0] $end
$var wire 1 E ex_i_stall $end
$var wire 1 @ ex_rst $end
$var wire 1 L# next_stall $end
$var wire 1 M# stall_bit $end
$var wire 32 N# temp_pc [31:0] $end
$var wire 5 O# shamt [4:0] $end
$var wire 32 P# rs2_value [31:0] $end
$var wire 32 Q# rs1_value [31:0] $end
$var wire 1 R# op_system $end
$var wire 1 S# op_store $end
$var wire 1 T# op_rtype $end
$var wire 1 U# op_lui $end
$var wire 1 V# op_load $end
$var wire 1 W# op_jalr $end
$var wire 1 X# op_jal $end
$var wire 1 Y# op_itype $end
$var wire 1 Z# op_fence $end
$var wire 1 [# op_branch $end
$var wire 1 \# op_auipc $end
$var wire 1 ]# alu_xor $end
$var wire 1 ^# alu_sub $end
$var wire 1 _# alu_srl $end
$var wire 1 `# alu_sra $end
$var wire 1 a# alu_sltu $end
$var wire 1 b# alu_slt $end
$var wire 1 c# alu_sll $end
$var wire 1 d# alu_or $end
$var wire 1 e# alu_neq $end
$var wire 1 f# alu_geu $end
$var wire 1 g# alu_ge $end
$var wire 1 h# alu_eq $end
$var wire 1 i# alu_and $end
$var wire 1 j# alu_add $end
$var parameter 32 k# AWIDTH $end
$var parameter 32 l# DWIDTH $end
$var parameter 32 m# FUNCT_WIDTH $end
$var parameter 32 n# PC_WIDTH $end
$var reg 32 o# a [31:0] $end
$var reg 32 p# alu_value [31:0] $end
$var reg 32 q# b [31:0] $end
$var reg 32 r# ex_next_pc [31:0] $end
$var reg 5 s# ex_o_addr_rd [4:0] $end
$var reg 5 t# ex_o_addr_rs1 [4:0] $end
$var reg 5 u# ex_o_addr_rs2 [4:0] $end
$var reg 14 v# ex_o_alu [13:0] $end
$var reg 32 w# ex_o_alu_value [31:0] $end
$var reg 1 - ex_o_ce $end
$var reg 1 [ ex_o_change_pc $end
$var reg 32 x# ex_o_data_rd [31:0] $end
$var reg 32 y# ex_o_data_rs1 [31:0] $end
$var reg 32 z# ex_o_data_rs2 [31:0] $end
$var reg 1 ) ex_o_flush $end
$var reg 3 {# ex_o_funct3 [2:0] $end
$var reg 32 |# ex_o_imm [31:0] $end
$var reg 11 }# ex_o_opcode [10:0] $end
$var reg 32 ~# ex_o_pc [31:0] $end
$var reg 1 % ex_o_stall $end
$var reg 1 $ ex_o_valid $end
$var reg 1 ! ex_o_we_reg $end
$var reg 1 " ex_stall_from_alu $end
$var reg 32 !$ temp_data_rd [31:0] $end
$upscope $end
$upscope $end
$scope task display $end
$var integer 32 "$ counter [31:0] $end
$upscope $end
$scope task reset $end
$var integer 32 #$ counter [31:0] $end
$upscope $end
$upscope $end
$enddefinitions $end
$comment Show the parameter values. $end
$dumpall
b100000 n#
b11 m#
b100000 l#
b101 k#
b100000 ?#
b100000 >#
b100100 =#
b100000 1#
b100000 0#
b100000 /#
b100000 +#
b100000 *#
b100100 )#
b100000 (#
b100000 z"
b100000 y"
b101 x"
b100000 E"
b100000 D"
b11 C"
b100000 B"
b101 A"
b100000 :"
b100000 9"
b11 8"
b100000 7"
b101 6"
b100000 $"
b100000 #"
b11 ""
b100000 !"
b100100 ~
b100000 }
b101 |
b100000 c
b100000 b
b11 a
b100000 `
b100100 _
b100000 ^
b101 ]
b100000 ;
b100000 :
b11 9
b100000 8
b100100 7
b100000 6
b101 5
$end
#0
$dumpvars
b10 #$
bx "$
b0 !$
b0 ~#
b0 }#
b0 |#
b0 {#
b0 z#
b0 y#
b0 x#
bx w#
b0 v#
b0 u#
b0 t#
b0 s#
b0 r#
b0 q#
b0 p#
b0 o#
1j#
0i#
0h#
0g#
0f#
0e#
0d#
0c#
0b#
0a#
0`#
0_#
0^#
0]#
0\#
0[#
0Z#
0Y#
0X#
0W#
0V#
0U#
1T#
0S#
0R#
b0 Q#
b0 P#
b0 O#
b0 N#
0M#
0L#
b0 K#
b0 J#
bx I#
bx H#
b0 G#
b0 F#
b0 E#
b0 D#
b0 C#
b0 B#
b0 A#
b0 @#
0<#
0;#
0:#
b0 9#
08#
b0 7#
06#
b0 5#
b0 4#
03#
02#
b0 .#
x-#
bz ,#
0'#
0&#
b0 %#
b0 $#
b0 ##
0"#
b0 !#
bz ~"
b11111111 }"
b0 |"
b0 {"
0w"
b0 v"
b0 u"
b0 t"
b0 s"
0r"
b0 q"
b0 p"
b0 o"
0n"
0m"
0l"
0k"
0j"
0i"
0h"
0g"
0f"
0e"
0d"
0c"
b0 b"
b0 a"
1`"
b0 _"
b0 ^"
b0 ]"
bx \"
bx ["
b0 Z"
b0 Y"
b0 X"
b0 W"
b0 V"
0U"
0T"
0S"
0R"
0Q"
0P"
0O"
0N"
0M"
0L"
0K"
0J"
0I"
0H"
0G"
1F"
b0 @"
b0 ?"
0>"
b0 ="
b0 <"
b0 ;"
b0 5"
b0 4"
b0 3"
b0 2"
b0 1"
b0 0"
b0 /"
b0 ."
b0 -"
b0 ,"
b0 +"
b0 *"
bx )"
bx ("
b0 '"
b0 &"
b0 %"
b0 {
b0 z
b0 y
b0 x
b0 w
b0 v
b0 u
bx t
bx s
b0 r
b0 q
b0 p
0o
0n
b0 m
0l
b0 k
zj
bz i
b0 h
0g
0f
b0 e
b0 d
bx \
0[
b0 Z
b0 Y
b0 X
b0 W
b0 V
b0 U
bx T
bx S
b0 R
b0 Q
b0 P
b0 O
b0 N
b0 M
b0 L
b0 K
b0 J
0I
b0 H
b0 G
b0 F
0E
b0 D
b0 C
b0 B
bx A
0@
x?
x>
0=
0<
bx 4
b0 3
b0 2
b0 1
b0 0
b0 /
0.
x-
b0 ,
b0 +
b0 *
0)
b0 (
b0 '
b0 &
0%
0$
b0 #
0"
0!
$end
#5
0`"
b11111111 }"
1<
#10
0<
#15
18#
0-
1@
1<
#20
0<
#25
b100 k
b100 2"
b100 ?"
b100 !#
b100 7#
1'#
1:#
0-#
b0 A
1=
b1100100 "$
0>
0?
1<
#30
0<
#35
b1 1"
b1 ;"
b1 o"
b10 /"
b10 <"
b10 p"
b11 -"
b11 ="
b11 q"
1r"
1k"
1F"
b110011 b"
b1000 9#
b1000 k
b1000 2"
b1000 ?"
b1000 !#
b1000 7#
b1100010000000010110011 R
b1100010000000010110011 m
b1100010000000010110011 3"
b1100010000000010110011 @"
b1100010000000010110011 $#
b1100010000000010110011 5#
1;#
b1 A#
1&#
b1100010000000010110011 ##
b1100010000000010110011 .#
b1100010000000010110011 @#
16#
1<
#40
b1 A
0<
#45
bx O#
bx p#
bx q#
0T#
1T"
0F"
b100 1"
b100 ;"
b100 o"
b110 -"
b110 ="
b110 q"
b101 /"
b101 <"
b101 p"
13#
b1100 9#
b1100 k
b1100 2"
b1100 ?"
b1100 !#
b1100 7#
b1000000011000101000001000110011 R
b1000000011000101000001000110011 m
b1000000011000101000001000110011 3"
b1000000011000101000001000110011 @"
b1000000011000101000001000110011 $#
b1000000011000101000001000110011 5#
b1000 p
b1000 %#
b1000 4#
b110011 Q
b110011 r
b110011 '"
b110011 ]"
b110011 J#
12#
b10 A#
b1000000011000101000001000110011 ##
b1000000011000101000001000110011 .#
b1000000011000101000001000110011 @#
1<
#50
b10 A
0<
#55
1P"
b10 _"
0T"
b111 1"
b111 ;"
b111 o"
b1001 -"
b1001 ="
b1001 q"
b1000 /"
b1000 <"
b1000 p"
b10000 9#
b10000 k
b10000 2"
b10000 ?"
b10000 !#
b10000 7#
b100101000010001110110011 R
b100101000010001110110011 m
b100101000010001110110011 3"
b100101000010001110110011 @"
b100101000010001110110011 $#
b100101000010001110110011 5#
b1100 p
b1100 %#
b1100 4#
b11 A#
b100101000010001110110011 ##
b100101000010001110110011 .#
b100101000010001110110011 @#
1o
1<
#60
b11 A
0<
#65
0j#
1]#
b0 O#
1Q"
0P"
b11 _"
b1010 1"
b1010 ;"
b1010 o"
b1100 -"
b1100 ="
b1100 q"
b1011 /"
b1011 <"
b1011 p"
b0 p#
b0 q#
b10100 9#
b10100 k
b10100 2"
b10100 ?"
b10100 !#
b10100 7#
b110001011011010100110011 R
b110001011011010100110011 m
b110001011011010100110011 3"
b110001011011010100110011 @"
b110001011011010100110011 $#
b110001011011010100110011 5#
b10000 p
b10000 %#
b10000 4#
1.
b110011 Q
b110011 r
b110011 '"
b110011 ]"
b110011 J#
b100 W
b100 v
b100 +"
b100 Y"
b100 E#
b0 S
b0 s
b0 ("
b0 \"
b0 I#
b10 T
b10 t
b10 )"
b10 ["
b10 H#
b111 Z
b111 y
b111 0"
b111 V"
b111 s"
b1001 X
b1001 w
b1001 ,"
b1001 X"
b1001 u"
b1001 D#
b1000 Y
b1000 x
b1000 ."
b1000 W"
b1000 t"
b1000 C#
b10000 N#
b10000 D
b10000 q
b10000 &"
b10000 ^"
b10000 K#
b100 A#
b110001011011010100110011 ##
b110001011011010100110011 .#
b110001011011010100110011 @#
1<
#70
b100 A
0<
#75
1U"
0Q"
b100 _"
b1101 1"
b1101 ;"
b1101 o"
b1111 -"
b1111 ="
b1111 q"
b1110 /"
b1110 <"
b1110 p"
1_#
0]#
b11000 9#
b11000 k
b11000 2"
b11000 ?"
b11000 !#
b11000 7#
b111101110100011010110011 R
b111101110100011010110011 m
b111101110100011010110011 3"
b111101110100011010110011 @"
b111101110100011010110011 $#
b111101110100011010110011 5#
b10100 p
b10100 %#
b10100 4#
b1000 p#
b1000 o#
b1001 P#
b1000 Q#
b101 A#
b111101110100011010110011 ##
b111101110100011010110011 .#
b111101110100011010110011 @#
b110011 Q
b110011 r
b110011 '"
b110011 ]"
b110011 J#
b1000 W
b1000 v
b1000 +"
b1000 Y"
b1000 E#
b11 T
b11 t
b11 )"
b11 ["
b11 H#
b1010 Z
b1010 y
b1010 0"
b1010 V"
b1010 s"
b1100 X
b1100 w
b1100 ,"
b1100 X"
b1100 u"
b1100 D#
b1011 Y
b1011 x
b1011 ."
b1011 W"
b1011 t"
b1011 C#
b10100 N#
b10100 D
b10100 q
b10100 &"
b10100 ^"
b10100 K#
b1001 U
b1001 z
b1001 4"
b1001 |"
b1001 G#
b1000 V
b1000 {
b1000 5"
b1000 {"
b1000 F#
b10000 #
b10000 C
b10000 ~#
b10000 3
b10000 P
b10000 r#
1f
1<
#80
b101 A
0<
#85
b1011 o#
0_#
1N"
0U"
b110 _"
b10000 1"
b10000 ;"
b10000 o"
b10010 -"
b10010 ="
b10010 q"
b10001 /"
b10001 <"
b10001 p"
b1100 P#
b1011 Q#
b0 p#
b11100 9#
b11100 k
b11100 2"
b11100 ?"
b11100 !#
b11100 7#
b1001010001110100000110011 R
b1001010001110100000110011 m
b1001010001110100000110011 3"
b1001010001110100000110011 @"
b1001010001110100000110011 $#
b1001010001110100000110011 5#
b11000 p
b11000 %#
b11000 4#
b1010 e
b1010 B#
1-
b1000 4
b1000 \
b1000 w#
b1001 *
b1001 J
b1001 z#
b1000 +
b1000 K
b1000 y#
b1100 0
b1100 M
b1100 u#
b1011 1
b1011 N
b1011 t#
b11 (
b11 H
b11 {#
b110011 &
b110011 F
b110011 }#
b1000 /
b1000 L
b1000 v#
b10100 #
b10100 C
b10100 ~#
b10100 3
b10100 P
b10100 r#
b1100 U
b1100 z
b1100 4"
b1100 |"
b1100 G#
b1011 V
b1011 {
b1011 5"
b1011 {"
b1011 F#
b110011 Q
b110011 r
b110011 '"
b110011 ]"
b110011 J#
b10000 W
b10000 v
b10000 +"
b10000 Y"
b10000 E#
b100 T
b100 t
b100 )"
b100 ["
b100 H#
b1101 Z
b1101 y
b1101 0"
b1101 V"
b1101 s"
b1111 X
b1111 w
b1111 ,"
b1111 X"
b1111 u"
b1111 D#
b1110 Y
b1110 x
b1110 ."
b1110 W"
b1110 t"
b1110 C#
b11000 N#
b11000 D
b11000 q
b11000 &"
b11000 ^"
b11000 K#
b110 A#
b1001010001110100000110011 ##
b1001010001110100000110011 .#
b1001010001110100000110011 @#
1<
#90
b110 A
0<
#95
1G"
0N"
b111 _"
b10011 1"
b10011 ;"
b10011 o"
b10101 -"
b10101 ="
b10101 q"
b10100 /"
b10100 <"
b10100 p"
b100000 9#
b100000 k
b100000 2"
b100000 ?"
b100000 !#
b100000 7#
b1010110100111100110110011 R
b1010110100111100110110011 m
b1010110100111100110110011 3"
b1010110100111100110110011 @"
b1010110100111100110110011 $#
b1010110100111100110110011 5#
b11100 p
b11100 %#
b11100 4#
b1110 o#
b1111 P#
b1110 Q#
b111 A#
b1010110100111100110110011 ##
b1010110100111100110110011 .#
b1010110100111100110110011 @#
b110011 Q
b110011 r
b110011 '"
b110011 ]"
b110011 J#
b100000 W
b100000 v
b100000 +"
b100000 Y"
b100000 E#
b110 T
b110 t
b110 )"
b110 ["
b110 H#
b10000 Z
b10000 y
b10000 0"
b10000 V"
b10000 s"
b10010 X
b10010 w
b10010 ,"
b10010 X"
b10010 u"
b10010 D#
b10001 Y
b10001 x
b10001 ."
b10001 W"
b10001 t"
b10001 C#
b11100 N#
b11100 D
b11100 q
b11100 &"
b11100 ^"
b11100 K#
b1111 U
b1111 z
b1111 4"
b1111 |"
b1111 G#
b1110 V
b1110 {
b1110 5"
b1110 {"
b1110 F#
b0 4
b0 \
b0 w#
b1100 *
b1100 J
b1100 z#
b1011 +
b1011 K
b1011 y#
b1111 0
b1111 M
b1111 u#
b1110 1
b1110 N
b1110 t#
b100 (
b100 H
b100 {#
b110011 &
b110011 F
b110011 }#
b10000 /
b10000 L
b10000 v#
1-
b1010 2
b1010 O
b1010 s#
b11000 #
b11000 C
b11000 ~#
b11000 3
b11000 P
b11000 r#
b1101 e
b1101 B#
1<
#100
b111 A
0<
#105
b10001 o#
1O"
0G"
b1 _"
b10110 1"
b10110 ;"
b10110 o"
b11000 -"
b11000 ="
b11000 q"
b10111 /"
b10111 <"
b10111 p"
b10010 P#
b10001 Q#
b100100 9#
b100100 k
b100100 2"
b100100 ?"
b100100 !#
b100100 7#
b1100010111001101100110011 R
b1100010111001101100110011 m
b1100010111001101100110011 3"
b1100010111001101100110011 @"
b1100010111001101100110011 $#
b1100010111001101100110011 5#
b100000 p
b100000 %#
b100000 4#
b10000 e
b10000 B#
b1111 *
b1111 J
b1111 z#
b1110 +
b1110 K
b1110 y#
b10010 0
b10010 M
b10010 u#
b10001 1
b10001 N
b10001 t#
b110 (
b110 H
b110 {#
b110011 &
b110011 F
b110011 }#
b100000 /
b100000 L
b100000 v#
1-
b1101 2
b1101 O
b1101 s#
b11100 #
b11100 C
b11100 ~#
b11100 3
b11100 P
b11100 r#
b10010 U
b10010 z
b10010 4"
b10010 |"
b10010 G#
b10001 V
b10001 {
b10001 5"
b10001 {"
b10001 F#
b110011 Q
b110011 r
b110011 '"
b110011 ]"
b110011 J#
b1000000 W
b1000000 v
b1000000 +"
b1000000 Y"
b1000000 E#
b111 T
b111 t
b111 )"
b111 ["
b111 H#
b10011 Z
b10011 y
b10011 0"
b10011 V"
b10011 s"
b10101 X
b10101 w
b10101 ,"
b10101 X"
b10101 u"
b10101 D#
b10100 Y
b10100 x
b10100 ."
b10100 W"
b10100 t"
b10100 C#
b100000 N#
b100000 D
b100000 q
b100000 &"
b100000 ^"
b100000 K#
b1000 A#
b1100010111001101100110011 ##
b1100010111001101100110011 .#
b1100010111001101100110011 @#
1<
#110
b1000 A
0<
