waveform/fe_de_ex.vcd
$date
	Thu Sep 18 14:51:45 2025
$end
$version
	Icarus Verilog
$end
$timescale
	1s
$end
$scope module tb $end
$var wire 1 ! fe_we_reg_n $end
$var wire 1 " fe_stall_alu $end
$var wire 32 # fe_pc_n [31:0] $end
$var wire 1 $ fe_o_valid $end
$var wire 1 % fe_o_stall_n $end
$var wire 11 & fe_o_opcode [10:0] $end
$var wire 32 ' fe_o_imm [31:0] $end
$var wire 3 ( fe_o_funct3 [2:0] $end
$var wire 1 ) fe_o_flush_n $end
$var wire 32 * fe_o_data_rs2 [31:0] $end
$var wire 32 + fe_o_data_rs1 [31:0] $end
$var wire 32 , fe_o_data_rd [31:0] $end
$var wire 1 - fe_o_ce_n $end
$var wire 14 . fe_o_alu [13:0] $end
$var wire 5 / fe_o_addr_rs2 [4:0] $end
$var wire 5 0 fe_o_addr_rs1 [4:0] $end
$var wire 5 1 fe_o_addr_rd [4:0] $end
$var wire 32 2 fe_next_pc [31:0] $end
$var wire 32 3 fe_alu_value [31:0] $end
$var parameter 32 4 AWIDTH $end
$var parameter 32 5 AWIDTH_INSTR $end
$var parameter 32 6 DEPTH $end
$var parameter 32 7 DWIDTH $end
$var parameter 32 8 FUNCT_WIDTH $end
$var parameter 32 9 IWIDTH $end
$var parameter 32 : PC_WIDTH $end
$var reg 1 ; fe_clk $end
$var reg 1 < fe_i_ce $end
$var reg 1 = fe_i_flush $end
$var reg 1 > fe_i_stall $end
$var reg 1 ? fe_rst $end
$var reg 1 @ fe_we_reg $end
$var integer 32 A i [31:0] $end
$scope module fe $end
$var wire 1 ; fe_clk $end
$var wire 1 < fe_i_ce $end
$var wire 1 = fe_i_flush $end
$var wire 1 > fe_i_stall $end
$var wire 32 B fe_o_data_rd [31:0] $end
$var wire 1 ? fe_rst $end
$var wire 1 @ fe_we_reg $end
$var wire 1 ! fe_we_reg_n $end
$var wire 1 " fe_stall_alu $end
$var wire 32 C fe_pc_n [31:0] $end
$var wire 32 D fe_pc [31:0] $end
$var wire 1 $ fe_o_valid $end
$var wire 1 % fe_o_stall_n $end
$var wire 1 E fe_o_stall $end
$var wire 11 F fe_o_opcode [10:0] $end
$var wire 32 G fe_o_imm [31:0] $end
$var wire 3 H fe_o_funct3 [2:0] $end
$var wire 1 ) fe_o_flush_n $end
$var wire 1 I fe_o_flush $end
$var wire 32 J fe_o_data_rs2 [31:0] $end
$var wire 32 K fe_o_data_rs1 [31:0] $end
$var wire 1 - fe_o_ce_n $end
$var wire 1 L fe_o_ce $end
$var wire 14 M fe_o_alu [13:0] $end
$var wire 5 N fe_o_addr_rs2 [4:0] $end
$var wire 5 O fe_o_addr_rs1 [4:0] $end
$var wire 5 P fe_o_addr_rd [4:0] $end
$var wire 32 Q fe_next_pc [31:0] $end
$var wire 11 R fe_i_opcode [10:0] $end
$var wire 32 S fe_i_instr_fetch [31:0] $end
$var wire 32 T fe_i_imm [31:0] $end
$var wire 3 U fe_i_funct3 [2:0] $end
$var wire 32 V fe_i_data_rs2 [31:0] $end
$var wire 32 W fe_i_data_rs1 [31:0] $end
$var wire 14 X fe_i_alu [13:0] $end
$var wire 5 Y fe_i_addr_rs2 [4:0] $end
$var wire 5 Z fe_i_addr_rs1 [4:0] $end
$var wire 5 [ fe_i_addr_rd [4:0] $end
$var wire 32 \ fe_alu_value [31:0] $end
$var wire 32 ] ex_data_rd [31:0] $end
$var wire 1 ^ ex_change_pc $end
$var parameter 32 _ AWIDTH $end
$var parameter 32 ` AWIDTH_INSTR $end
$var parameter 32 a DEPTH $end
$var parameter 32 b DWIDTH $end
$var parameter 32 c FUNCT_WIDTH $end
$var parameter 32 d IWIDTH $end
$var parameter 32 e PC_WIDTH $end
$scope module c $end
$var wire 1 ; c_clk $end
$var wire 1 ? c_rst $end
$var wire 1 @ ds_we $end
$var wire 32 f fi_alu_pc_value [31:0] $end
$var wire 1 g fi_change_pc $end
$var wire 1 < fi_i_ce $end
$var wire 1 = fi_i_flush $end
$var wire 1 > fi_i_stall $end
$var wire 32 h fi_pc [31:0] $end
$var wire 1 i fi_o_stall $end
$var wire 32 j fi_o_instr_fetch [31:0] $end
$var wire 1 k fi_o_flush $end
$var wire 1 l fi_o_ce $end
$var wire 32 m fi_o_addr_instr [31:0] $end
$var wire 1 E ds_o_stall $end
$var wire 32 n ds_o_pc [31:0] $end
$var wire 11 o ds_o_opcode [10:0] $end
$var wire 32 p ds_o_imm [31:0] $end
$var wire 3 q ds_o_funct3 [2:0] $end
$var wire 1 I ds_o_flush $end
$var wire 4 r ds_o_exception [3:0] $end
$var wire 1 L ds_o_ce $end
$var wire 14 s ds_o_alu [13:0] $end
$var wire 5 t ds_o_addr_rs2_p [4:0] $end
$var wire 5 u ds_o_addr_rs1_p [4:0] $end
$var wire 5 v ds_o_addr_rd_p [4:0] $end
$var wire 32 w ds_data_out_rs2 [31:0] $end
$var wire 32 x ds_data_out_rs1 [31:0] $end
$var wire 32 y ds_data_in_rd [31:0] $end
$var parameter 32 z AWIDTH $end
$var parameter 32 { AWIDTH_INSTR $end
$var parameter 32 | DEPTH $end
$var parameter 32 } DWIDTH $end
$var parameter 32 ~ FUNCT_WIDTH $end
$var parameter 32 !" IWIDTH $end
$var parameter 32 "" PC_WIDTH $end
$scope module ds $end
$var wire 1 ; ds_clk $end
$var wire 1 ? ds_rst $end
$var wire 1 @ ds_we $end
$var wire 1 E ds_o_stall $end
$var wire 32 #" ds_o_pc [31:0] $end
$var wire 11 $" ds_o_opcode [10:0] $end
$var wire 32 %" ds_o_imm [31:0] $end
$var wire 3 &" ds_o_funct3 [2:0] $end
$var wire 1 I ds_o_flush $end
$var wire 4 '" ds_o_exception [3:0] $end
$var wire 1 L ds_o_ce $end
$var wire 14 (" ds_o_alu [13:0] $end
$var wire 5 )" ds_o_addr_rs2_p [4:0] $end
$var wire 5 *" ds_o_addr_rs2 [4:0] $end
$var wire 5 +" ds_o_addr_rs1_p [4:0] $end
$var wire 5 ," ds_o_addr_rs1 [4:0] $end
$var wire 5 -" ds_o_addr_rd_p [4:0] $end
$var wire 5 ." ds_o_addr_rd [4:0] $end
$var wire 1 i ds_i_stall $end
$var wire 32 /" ds_i_pc [31:0] $end
$var wire 32 0" ds_i_instr [31:0] $end
$var wire 1 k ds_i_flush $end
$var wire 1 l ds_i_ce $end
$var wire 32 1" ds_data_out_rs2 [31:0] $end
$var wire 32 2" ds_data_out_rs1 [31:0] $end
$var wire 32 3" ds_data_in_rd [31:0] $end
$var parameter 32 4" AWIDTH $end
$var parameter 32 5" DWIDTH $end
$var parameter 32 6" FUNCT_WIDTH $end
$var parameter 32 7" IWIDTH $end
$var parameter 32 8" PC_WIDTH $end
$scope module d $end
$var wire 1 ; d_clk $end
$var wire 5 9" d_o_addr_rd [4:0] $end
$var wire 5 :" d_o_addr_rs1 [4:0] $end
$var wire 5 ;" d_o_addr_rs2 [4:0] $end
$var wire 1 I d_o_flush $end
$var wire 1 E d_o_stall $end
$var wire 1 ? d_rst $end
$var wire 1 <" stall_bit $end
$var wire 12 =" system_exception [11:0] $end
$var wire 1 i d_i_stall $end
$var wire 32 >" d_i_pc [31:0] $end
$var wire 32 ?" d_i_instr [31:0] $end
$var wire 1 k d_i_flush $end
$var wire 1 l d_i_ce $end
$var parameter 32 @" AWIDTH $end
$var parameter 32 A" DWIDTH $end
$var parameter 32 B" FUNCT_WIDTH $end
$var parameter 32 C" IWIDTH $end
$var parameter 32 D" PC_WIDTH $end
$var reg 1 E" alu_add_d $end
$var reg 1 F" alu_and_d $end
$var reg 1 G" alu_eq_d $end
$var reg 1 H" alu_ge_d $end
$var reg 1 I" alu_geu_d $end
$var reg 1 J" alu_lt_d $end
$var reg 1 K" alu_ltu_d $end
$var reg 1 L" alu_neq_d $end
$var reg 1 M" alu_or_d $end
$var reg 1 N" alu_sll_d $end
$var reg 1 O" alu_slt_d $end
$var reg 1 P" alu_sltu_d $end
$var reg 1 Q" alu_sra_d $end
$var reg 1 R" alu_srl_d $end
$var reg 1 S" alu_sub_d $end
$var reg 1 T" alu_xor_d $end
$var reg 5 U" d_o_addr_rd_p [4:0] $end
$var reg 5 V" d_o_addr_rs1_p [4:0] $end
$var reg 5 W" d_o_addr_rs2_p [4:0] $end
$var reg 14 X" d_o_alu [13:0] $end
$var reg 1 L d_o_ce $end
$var reg 4 Y" d_o_exception [3:0] $end
$var reg 3 Z" d_o_funct3 [2:0] $end
$var reg 32 [" d_o_imm [31:0] $end
$var reg 11 \" d_o_opcode [10:0] $end
$var reg 32 ]" d_o_pc [31:0] $end
$var reg 3 ^" funct3 [2:0] $end
$var reg 1 _" illegal_check $end
$var reg 32 `" imm_d [31:0] $end
$var reg 7 a" opcode [6:0] $end
$var reg 1 b" opcode_auipc_d $end
$var reg 1 c" opcode_branch_d $end
$var reg 1 d" opcode_fence_d $end
$var reg 1 e" opcode_itype_d $end
$var reg 1 f" opcode_jal_d $end
$var reg 1 g" opcode_jalr_d $end
$var reg 1 h" opcode_load_word_d $end
$var reg 1 i" opcode_lui_d $end
$var reg 1 j" opcode_rtype_d $end
$var reg 1 k" opcode_store_word_d $end
$var reg 1 l" opcode_system_d $end
$var reg 5 m" temp_addr_rd [4:0] $end
$var reg 5 n" temp_addr_rs1 [4:0] $end
$var reg 5 o" temp_addr_rs2 [4:0] $end
$var reg 1 p" valid_opcode $end
$upscope $end
$scope module re $end
$var wire 5 q" r_addr_rd [4:0] $end
$var wire 5 r" r_addr_rs1 [4:0] $end
$var wire 5 s" r_addr_rs2 [4:0] $end
$var wire 1 ; r_clk $end
$var wire 1 ? r_rst $end
$var wire 1 t" r_wb $end
$var wire 1 @ r_we $end
$var wire 32 u" r_data_rd [31:0] $end
$var parameter 32 v" AWIDTH $end
$var parameter 37 w" DEPTH $end
$var parameter 32 x" DWIDTH $end
$var reg 32 y" r_data_out_rs1 [31:0] $end
$var reg 32 z" r_data_out_rs2 [31:0] $end
$var integer 32 {" i [31:0] $end
$upscope $end
$upscope $end
$scope module fi $end
$var wire 32 |" fi_alu_pc_value [31:0] $end
$var wire 1 g fi_change_pc $end
$var wire 1 ; fi_clk $end
$var wire 1 < fi_i_ce $end
$var wire 1 = fi_i_flush $end
$var wire 1 > fi_i_stall $end
$var wire 1 ? fi_rst $end
$var wire 32 }" fi_pc [31:0] $end
$var wire 1 i fi_o_stall $end
$var wire 1 ~" fi_o_last $end
$var wire 32 !# fi_o_instr_mem [31:0] $end
$var wire 32 "# fi_o_instr_fetch [31:0] $end
$var wire 1 k fi_o_flush $end
$var wire 1 l fi_o_ce $end
$var wire 32 ## fi_o_addr_instr [31:0] $end
$var wire 1 $# fi_o_ack $end
$var wire 1 %# fi_i_syn $end
$var parameter 32 &# AWIDTH_INSTR $end
$var parameter 32 '# DEPTH $end
$var parameter 32 (# IWIDTH $end
$var parameter 32 )# PC_WIDTH $end
$scope module f $end
$var wire 32 *# f_alu_pc_value [31:0] $end
$var wire 1 g f_change_pc $end
$var wire 1 ; f_clk $end
$var wire 1 < f_i_ce $end
$var wire 1 = f_i_flush $end
$var wire 1 > f_i_stall $end
$var wire 1 ? f_rst $end
$var wire 1 +# stall $end
$var wire 1 ~" f_i_last $end
$var wire 32 ,# f_i_instr [31:0] $end
$var wire 1 $# f_i_ack $end
$var parameter 32 -# AWIDTH_INSTR $end
$var parameter 32 .# IWIDTH $end
$var parameter 32 /# PC_WIDTH $end
$var reg 1 0# ce $end
$var reg 1 1# ce_d $end
$var reg 32 2# f_o_addr_instr [31:0] $end
$var reg 1 l f_o_ce $end
$var reg 1 k f_o_flush $end
$var reg 32 3# f_o_instr [31:0] $end
$var reg 1 i f_o_stall $end
$var reg 1 %# f_o_syn $end
$var reg 1 4# f_o_syn_r $end
$var reg 32 5# f_pc [31:0] $end
$var reg 1 6# init_done $end
$var reg 32 7# issued_pc [31:0] $end
$var reg 1 8# req $end
$var reg 1 9# temp_ack $end
$var reg 1 :# temp_last $end
$upscope $end
$scope module t $end
$var wire 1 ; t_clk $end
$var wire 1 %# t_i_syn $end
$var wire 1 ? t_rst $end
$var parameter 32 ;# DEPTH $end
$var parameter 32 <# DWIDTH $end
$var parameter 32 =# IWIDTH $end
$var reg 1 $# t_o_ack $end
$var reg 32 ># t_o_instr [31:0] $end
$var reg 1 ~" t_o_last $end
$var integer 32 ?# counter [31:0] $end
$upscope $end
$upscope $end
$upscope $end
$scope module e $end
$var wire 1 ; ex_clk $end
$var wire 5 @# ex_i_addr_rd [4:0] $end
$var wire 5 A# ex_i_addr_rs1 [4:0] $end
$var wire 5 B# ex_i_addr_rs2 [4:0] $end
$var wire 14 C# ex_i_alu [13:0] $end
$var wire 1 L ex_i_ce $end
$var wire 32 D# ex_i_data_rs1 [31:0] $end
$var wire 32 E# ex_i_data_rs2 [31:0] $end
$var wire 1 I ex_i_flush $end
$var wire 3 F# ex_i_funct3 [2:0] $end
$var wire 32 G# ex_i_imm [31:0] $end
$var wire 11 H# ex_i_opcode [10:0] $end
$var wire 32 I# ex_i_pc [31:0] $end
$var wire 1 E ex_i_stall $end
$var wire 1 ? ex_rst $end
$var wire 1 J# next_stall $end
$var wire 1 K# stall_bit $end
$var wire 32 L# temp_pc [31:0] $end
$var wire 5 M# shamt [4:0] $end
$var wire 32 N# rs2_value [31:0] $end
$var wire 32 O# rs1_value [31:0] $end
$var wire 1 P# op_system $end
$var wire 1 Q# op_store $end
$var wire 1 R# op_rtype $end
$var wire 1 S# op_lui $end
$var wire 1 T# op_load $end
$var wire 1 U# op_jalr $end
$var wire 1 V# op_jal $end
$var wire 1 W# op_itype $end
$var wire 1 X# op_fence $end
$var wire 1 Y# op_branch $end
$var wire 1 Z# op_auipc $end
$var wire 1 [# alu_xor $end
$var wire 1 \# alu_sub $end
$var wire 1 ]# alu_srl $end
$var wire 1 ^# alu_sra $end
$var wire 1 _# alu_sltu $end
$var wire 1 `# alu_slt $end
$var wire 1 a# alu_sll $end
$var wire 1 b# alu_or $end
$var wire 1 c# alu_neq $end
$var wire 1 d# alu_geu $end
$var wire 1 e# alu_ge $end
$var wire 1 f# alu_eq $end
$var wire 1 g# alu_and $end
$var wire 1 h# alu_add $end
$var parameter 32 i# AWIDTH $end
$var parameter 32 j# DWIDTH $end
$var parameter 32 k# FUNCT_WIDTH $end
$var parameter 32 l# PC_WIDTH $end
$var reg 32 m# a [31:0] $end
$var reg 32 n# alu_value [31:0] $end
$var reg 32 o# b [31:0] $end
$var reg 32 p# ex_next_pc [31:0] $end
$var reg 5 q# ex_o_addr_rd [4:0] $end
$var reg 5 r# ex_o_addr_rs1 [4:0] $end
$var reg 5 s# ex_o_addr_rs2 [4:0] $end
$var reg 14 t# ex_o_alu [13:0] $end
$var reg 32 u# ex_o_alu_value [31:0] $end
$var reg 1 - ex_o_ce $end
$var reg 1 ^ ex_o_change_pc $end
$var reg 32 v# ex_o_data_rd [31:0] $end
$var reg 32 w# ex_o_data_rs1 [31:0] $end
$var reg 32 x# ex_o_data_rs2 [31:0] $end
$var reg 1 ) ex_o_flush $end
$var reg 3 y# ex_o_funct3 [2:0] $end
$var reg 32 z# ex_o_imm [31:0] $end
$var reg 11 {# ex_o_opcode [10:0] $end
$var reg 32 |# ex_o_pc [31:0] $end
$var reg 1 % ex_o_stall $end
$var reg 1 $ ex_o_valid $end
$var reg 1 ! ex_o_we_reg $end
$var reg 1 " ex_stall_from_alu $end
$var reg 32 }# temp_data_rd [31:0] $end
$upscope $end
$upscope $end
$scope task display $end
$var integer 32 ~# counter [31:0] $end
$upscope $end
$scope task reset $end
$var integer 32 !$ counter [31:0] $end
$upscope $end
$upscope $end
$enddefinitions $end
$comment Show the parameter values. $end
$dumpall
b100000 l#
b11 k#
b100000 j#
b101 i#
b100000 =#
b100000 <#
b100100 ;#
b100000 /#
b100000 .#
b100000 -#
b100000 )#
b100000 (#
b100100 '#
b100000 &#
b100000 x"
b100000 w"
b101 v"
b100000 D"
b100000 C"
b11 B"
b100000 A"
b101 @"
b100000 8"
b100000 7"
b11 6"
b100000 5"
b101 4"
b100000 ""
b100000 !"
b11 ~
b100000 }
b100100 |
b100000 {
b101 z
b100000 e
b100000 d
b11 c
b100000 b
b100100 a
b100000 `
b101 _
b100000 :
b100000 9
b11 8
b100000 7
b100100 6
b100000 5
b101 4
$end
#0
$dumpvars
b10 !$
bx ~#
b0 }#
b0 |#
b0 {#
b0 z#
b0 y#
b0 x#
b0 w#
b0 v#
bx u#
b0 t#
b0 s#
b0 r#
b0 q#
b0 p#
bx o#
b0 n#
b0 m#
0h#
0g#
0f#
0e#
0d#
0c#
0b#
0a#
0`#
0_#
0^#
0]#
0\#
0[#
0Z#
0Y#
0X#
0W#
0V#
0U#
0T#
0S#
0R#
0Q#
0P#
b0 O#
b0 N#
bx M#
b0 L#
0K#
0J#
b0 I#
b0 H#
bx G#
bx F#
b0 E#
b0 D#
b0 C#
b0 B#
b0 A#
b0 @#
b0 ?#
b0 >#
0:#
09#
08#
b0 7#
06#
b0 5#
04#
b0 3#
b0 2#
01#
00#
b0 ,#
x+#
bz *#
0%#
0$#
b0 ##
b0 "#
b0 !#
0~"
b0 }"
bz |"
b100000 {"
b0 z"
b0 y"
b0 u"
0t"
b0 s"
b0 r"
b0 q"
0p"
b0 o"
b0 n"
b0 m"
0l"
0k"
0j"
0i"
0h"
0g"
0f"
0e"
0d"
0c"
0b"
b0 a"
b0 `"
1_"
b0 ^"
b0 ]"
b0 \"
bx ["
bx Z"
b0 Y"
b0 X"
b0 W"
b0 V"
b0 U"
0T"
0S"
0R"
0Q"
0P"
0O"
0N"
0M"
0L"
0K"
0J"
0I"
0H"
0G"
0F"
1E"
b0 ?"
b0 >"
b0 ="
0<"
b0 ;"
b0 :"
b0 9"
b0 3"
b0 2"
b0 1"
b0 0"
b0 /"
b0 ."
b0 -"
b0 ,"
b0 +"
b0 *"
b0 )"
b0 ("
b0 '"
bx &"
bx %"
b0 $"
b0 #"
b0 y
b0 x
b0 w
b0 v
b0 u
b0 t
b0 s
b0 r
bx q
bx p
b0 o
b0 n
b0 m
0l
0k
b0 j
0i
b0 h
zg
bz f
0^
b0 ]
bx \
b0 [
b0 Z
b0 Y
b0 X
b0 W
b0 V
bx U
bx T
b0 S
b0 R
b0 Q
b0 P
b0 O
b0 N
b0 M
0L
b0 K
b0 J
0I
b0 H
b0 G
b0 F
0E
b0 D
b0 C
b0 B
bx A
x@
0?
x>
x=
0<
0;
bx 3
b0 2
b0 1
b0 0
b0 /
b0 .
x-
b0 ,
b0 +
b0 *
0)
b0 (
b0 '
b0 &
0%
0$
b0 #
0"
0!
$end
#5
0_"
b100000 {"
1;
#10
0;
#15
16#
0-
1?
1;
#20
0;
#25
b100 h
b100 /"
b100 >"
b100 }"
b100 5#
1%#
18#
0+#
b0 A
1<
b1100100 ~#
0=
0>
1;
#30
0;
#35
b11 ="
b1 ."
b1 9"
b1 m"
b10 ,"
b10 :"
b10 n"
b11 *"
b11 ;"
b11 o"
1p"
1j"
1E"
b110011 a"
b1000 7#
b1000 h
b1000 /"
b1000 >"
b1000 }"
b1000 5#
b1100010000000010110011 S
b1100010000000010110011 j
b1100010000000010110011 0"
b1100010000000010110011 ?"
b1100010000000010110011 "#
b1100010000000010110011 3#
19#
b1 ?#
1$#
b1100010000000010110011 !#
b1100010000000010110011 ,#
b1100010000000010110011 >#
14#
1;
#40
0;
#45
b10000000110 ="
1S"
0E"
b100 ."
b100 9"
b100 m"
b110 *"
b110 ;"
b110 o"
b101 ,"
b101 :"
b101 n"
11#
b1100 7#
b1100 h
b1100 /"
b1100 >"
b1100 }"
b1100 5#
b1000000011000101000001000110011 S
b1000000011000101000001000110011 j
b1000000011000101000001000110011 0"
b1000000011000101000001000110011 ?"
b1000000011000101000001000110011 "#
b1000000011000101000001000110011 3#
b1000 m
b1000 ##
b1000 2#
10#
b10 ?#
b1000000011000101000001000110011 !#
b1000000011000101000001000110011 ,#
b1000000011000101000001000110011 >#
b1 A
1;
#50
0;
#55
b1001 ="
1O"
b10 ^"
0S"
b111 ."
b111 9"
b111 m"
b1001 *"
b1001 ;"
b1001 o"
b1000 ,"
b1000 :"
b1000 n"
b10000 7#
b10000 h
b10000 /"
b10000 >"
b10000 }"
b10000 5#
b100101000010001110110011 S
b100101000010001110110011 j
b100101000010001110110011 0"
b100101000010001110110011 ?"
b100101000010001110110011 "#
b100101000010001110110011 3#
b1100 m
b1100 ##
b1100 2#
b11 ?#
b100101000010001110110011 !#
b100101000010001110110011 ,#
b100101000010001110110011 >#
1l
1;
#60
0;
#65
b0 M#
b1100 ="
1P"
0O"
b11 ^"
b1010 ."
b1010 9"
b1010 m"
b1100 *"
b1100 ;"
b1100 o"
b1011 ,"
b1011 :"
b1011 n"
1R#
1`#
xt"
b0 o#
b10100 7#
b10100 h
b10100 /"
b10100 >"
b10100 }"
b10100 5#
b110001011011010100110011 S
b110001011011010100110011 j
b110001011011010100110011 0"
b110001011011010100110011 ?"
b110001011011010100110011 "#
b110001011011010100110011 3#
b10000 m
b10000 ##
b10000 2#
1L
b1 R
b1 o
b1 $"
b1 \"
b1 H#
b100 X
b100 s
b100 ("
b100 X"
b100 C#
b0 T
b0 p
b0 %"
b0 ["
b0 G#
b10 U
b10 q
b10 &"
b10 Z"
b10 F#
b111 [
b111 v
b111 -"
b111 U"
b111 q"
b111 @#
b1001 Y
b1001 t
b1001 )"
b1001 W"
b1001 s"
b1001 B#
b1000 Z
b1000 u
b1000 +"
b1000 V"
b1000 r"
b1000 A#
b10000 L#
b10000 D
b10000 n
b10000 #"
b10000 ]"
b10000 I#
b100 ?#
b110001011011010100110011 !#
b110001011011010100110011 ,#
b110001011011010100110011 >#
b10 A
1;
#70
0;
#75
b1111 ="
1T"
0P"
b100 ^"
b1101 ."
b1101 9"
b1101 m"
b1111 *"
b1111 ;"
b1111 o"
b1110 ,"
b1110 :"
b1110 n"
b11000 7#
b11000 h
b11000 /"
b11000 >"
b11000 }"
b11000 5#
b111101110100011010110011 S
b111101110100011010110011 j
b111101110100011010110011 0"
b111101110100011010110011 ?"
b111101110100011010110011 "#
b111101110100011010110011 3#
b10100 m
b10100 ##
b10100 2#
1_#
0`#
b101 ?#
b111101110100011010110011 !#
b111101110100011010110011 ,#
b111101110100011010110011 >#
b1000 X
b1000 s
b1000 ("
b1000 X"
b1000 C#
b11 U
b11 q
b11 &"
b11 Z"
b11 F#
b1010 [
b1010 v
b1010 -"
b1010 U"
b1010 q"
b1010 @#
b1100 Y
b1100 t
b1100 )"
b1100 W"
b1100 s"
b1100 B#
b1011 Z
b1011 u
b1011 +"
b1011 V"
b1011 r"
b1011 A#
b10100 L#
b10100 D
b10100 n
b10100 #"
b10100 ]"
b10100 I#
1-
1!
1$
b0 3
b0 \
b0 u#
b1001 /
b1001 N
b1001 s#
b1000 0
b1000 O
b1000 r#
b10 (
b10 H
b10 y#
b1 &
b1 F
b1 {#
b100 .
b100 M
b100 t#
b111 1
b111 P
b111 q#
b10000 #
b10000 C
b10000 |#
b10000 2
b10000 Q
b10000 p#
1;
#80
0;
#85
b10010 ="
1M"
0T"
b110 ^"
b10000 ."
b10000 9"
b10000 m"
b10010 *"
b10010 ;"
b10010 o"
b10001 ,"
b10001 :"
b10001 n"
1[#
0_#
b11100 7#
b11100 h
b11100 /"
b11100 >"
b11100 }"
b11100 5#
b1001010001110100000110011 S
b1001010001110100000110011 j
b1001010001110100000110011 0"
b1001010001110100000110011 ?"
b1001010001110100000110011 "#
b1001010001110100000110011 3#
b11000 m
b11000 ##
b11000 2#
b1100 /
b1100 N
b1100 s#
b1011 0
b1011 O
b1011 r#
b11 (
b11 H
b11 y#
b1 &
b1 F
b1 {#
b1000 .
b1000 M
b1000 t#
1-
1$
1!
b1010 1
b1010 P
b1010 q#
b10100 #
b10100 C
b10100 |#
b10100 2
b10100 Q
b10100 p#
b10000 X
b10000 s
b10000 ("
b10000 X"
b10000 C#
b100 U
b100 q
b100 &"
b100 Z"
b100 F#
b1101 [
b1101 v
b1101 -"
b1101 U"
b1101 q"
b1101 @#
b1111 Y
b1111 t
b1111 )"
b1111 W"
b1111 s"
b1111 B#
b1110 Z
b1110 u
b1110 +"
b1110 V"
b1110 r"
b1110 A#
b11000 L#
b11000 D
b11000 n
b11000 #"
b11000 ]"
b11000 I#
b110 ?#
b1001010001110100000110011 !#
b1001010001110100000110011 ,#
b1001010001110100000110011 >#
b11 A
1;
#90
0;
#95
b10101 ="
1F"
0M"
b111 ^"
b10011 ."
b10011 9"
b10011 m"
b10101 *"
b10101 ;"
b10101 o"
b10100 ,"
b10100 :"
b10100 n"
b100000 7#
b100000 h
b100000 /"
b100000 >"
b100000 }"
b100000 5#
b1010110100111100110110011 S
b1010110100111100110110011 j
b1010110100111100110110011 0"
b1010110100111100110110011 ?"
b1010110100111100110110011 "#
b1010110100111100110110011 3#
b11100 m
b11100 ##
b11100 2#
1b#
0[#
b111 ?#
b1010110100111100110110011 !#
b1010110100111100110110011 ,#
b1010110100111100110110011 >#
b100000 X
b100000 s
b100000 ("
b100000 X"
b100000 C#
b110 U
b110 q
b110 &"
b110 Z"
b110 F#
b10000 [
b10000 v
b10000 -"
b10000 U"
b10000 q"
b10000 @#
b10010 Y
b10010 t
b10010 )"
b10010 W"
b10010 s"
b10010 B#
b10001 Z
b10001 u
b10001 +"
b10001 V"
b10001 r"
b10001 A#
b11100 L#
b11100 D
b11100 n
b11100 #"
b11100 ]"
b11100 I#
b1111 /
b1111 N
b1111 s#
b1110 0
b1110 O
b1110 r#
b100 (
b100 H
b100 y#
b1 &
b1 F
b1 {#
b10000 .
b10000 M
b10000 t#
1-
1$
1!
b1101 1
b1101 P
b1101 q#
b11000 #
b11000 C
b11000 |#
b11000 2
b11000 Q
b11000 p#
1;
#100
0;
#105
b11000 ="
1N"
0F"
b1 ^"
b10110 ."
b10110 9"
b10110 m"
b11000 *"
b11000 ;"
b11000 o"
b10111 ,"
b10111 :"
b10111 n"
1g#
0b#
b100100 7#
b100100 h
b100100 /"
b100100 >"
b100100 }"
b100100 5#
b1100010111001101100110011 S
b1100010111001101100110011 j
b1100010111001101100110011 0"
b1100010111001101100110011 ?"
b1100010111001101100110011 "#
b1100010111001101100110011 3#
b100000 m
b100000 ##
b100000 2#
b10010 /
b10010 N
b10010 s#
b10001 0
b10001 O
b10001 r#
b110 (
b110 H
b110 y#
b1 &
b1 F
b1 {#
b100000 .
b100000 M
b100000 t#
1-
1$
1!
b10000 1
b10000 P
b10000 q#
b11100 #
b11100 C
b11100 |#
b11100 2
b11100 Q
b11100 p#
b1000000 X
b1000000 s
b1000000 ("
b1000000 X"
b1000000 C#
b111 U
b111 q
b111 &"
b111 Z"
b111 F#
b10011 [
b10011 v
b10011 -"
b10011 U"
b10011 q"
b10011 @#
b10101 Y
b10101 t
b10101 )"
b10101 W"
b10101 s"
b10101 B#
b10100 Z
b10100 u
b10100 +"
b10100 V"
b10100 r"
b10100 A#
b100000 L#
b100000 D
b100000 n
b100000 #"
b100000 ]"
b100000 I#
b1000 ?#
b1100010111001101100110011 !#
b1100010111001101100110011 ,#
b1100010111001101100110011 >#
b100 A
1;
#110
0;
#115
b11011 ="
1R"
0N"
b101 ^"
b10011 ."
b10011 9"
b10011 m"
b11011 *"
b11011 ;"
b11011 o"
b1011 ,"
b1011 :"
b1011 n"
b101000 7#
b101000 h
b101000 /"
b101000 >"
b101000 }"
b101000 5#
b1101101011101100110110011 S
b1101101011101100110110011 j
b1101101011101100110110011 0"
b1101101011101100110110011 ?"
b1101101011101100110110011 "#
b1101101011101100110110011 3#
b100100 m
b100100 ##
b100100 2#
1a#
0g#
b1001 ?#
b1101101011101100110110011 !#
b1101101011101100110110011 ,#
b1101101011101100110110011 >#
b10000000 X
b10000000 s
b10000000 ("
b10000000 X"
b10000000 C#
b1 U
b1 q
b1 &"
b1 Z"
b1 F#
b10110 [
b10110 v
b10110 -"
b10110 U"
b10110 q"
b10110 @#
b11000 Y
b11000 t
b11000 )"
b11000 W"
b11000 s"
b11000 B#
b10111 Z
b10111 u
b10111 +"
b10111 V"
b10111 r"
b10111 A#
b100100 L#
b100100 D
b100100 n
b100100 #"
b100100 ]"
b100100 I#
b10101 /
b10101 N
b10101 s#
b10100 0
b10100 O
b10100 r#
b111 (
b111 H
b111 y#
b1 &
b1 F
b1 {#
b1000000 .
b1000000 M
b1000000 t#
1-
1$
1!
b10011 1
b10011 P
b10011 q#
b100000 #
b100000 C
b100000 |#
b100000 2
b100000 Q
b100000 p#
1;
#120
0;
