waveform/mem_stage.vcd
$date
	Sat Sep 27 11:26:41 2025
$end
$version
	Icarus Verilog
$end
$timescale
	1s
$end
$scope module tb_mem_stage $end
$var wire 1 ! me_o_stall $end
$var wire 1 " me_o_rd_we $end
$var wire 32 # me_o_rd_data [31:0] $end
$var wire 5 $ me_o_rd_addr [4:0] $end
$var wire 11 % me_o_opcode [10:0] $end
$var wire 32 & me_o_load_data [31:0] $end
$var wire 3 ' me_o_funct3 [2:0] $end
$var wire 1 ( me_o_flush $end
$var wire 1 ) me_o_ce $end
$var parameter 32 * AWIDTH $end
$var parameter 32 + DWIDTH $end
$var parameter 32 , FUNCT_WIDTH $end
$var reg 1 - me_clk $end
$var reg 32 . me_i_alu_value [31:0] $end
$var reg 1 / me_i_ce $end
$var reg 1 0 me_i_flush $end
$var reg 3 1 me_i_funct3 [2:0] $end
$var reg 11 2 me_i_opcode [10:0] $end
$var reg 5 3 me_i_rd_addr [4:0] $end
$var reg 32 4 me_i_rd_data [31:0] $end
$var reg 32 5 me_i_rs2_data [31:0] $end
$var reg 1 6 me_i_stall $end
$var reg 1 7 me_rst $end
$var reg 1 8 me_we_reg_n $end
$var integer 32 9 i [31:0] $end
$scope function opc $end
$var integer 32 : idx [31:0] $end
$upscope $end
$scope module UUT $end
$var wire 1 - me_clk $end
$var wire 32 ; me_i_alu_value [31:0] $end
$var wire 1 / me_i_ce $end
$var wire 1 0 me_i_flush $end
$var wire 3 < me_i_funct3 [2:0] $end
$var wire 11 = me_i_opcode [10:0] $end
$var wire 5 > me_i_rd_addr [4:0] $end
$var wire 32 ? me_i_rd_data [31:0] $end
$var wire 32 @ me_i_rs2_data [31:0] $end
$var wire 1 6 me_i_stall $end
$var wire 1 7 me_rst $end
$var wire 1 A me_stall_from_alu $end
$var wire 1 B stall_bit $end
$var wire 32 C store_data_aligned [31:0] $end
$var wire 1 D rd_we_d $end
$var wire 32 E rd_data_d [31:0] $end
$var wire 5 F rd_addr_d [4:0] $end
$var wire 1 G op_store $end
$var wire 1 H op_rtype $end
$var wire 1 I op_lui $end
$var wire 1 J op_load $end
$var wire 1 K op_jalr $end
$var wire 1 L op_jal $end
$var wire 1 M op_itype $end
$var wire 1 N op_auipc $end
$var wire 5 O mem_addr [4:0] $end
$var wire 1 P me_o_we $end
$var wire 32 Q me_o_store_data [31:0] $end
$var wire 5 R me_o_store_addr [4:0] $end
$var wire 1 S me_o_stb $end
$var wire 1 T me_o_rd $end
$var wire 5 U me_o_load_addr [4:0] $end
$var wire 1 V me_o_cyc $end
$var wire 32 W me_i_load_data [31:0] $end
$var wire 1 X me_i_ack $end
$var wire 1 Y m_i_stall $end
$var wire 32 Z final_load [31:0] $end
$var wire 2 [ byte_offset_d [1:0] $end
$var wire 4 \ byte_enable [3:0] $end
$var parameter 32 ] AWIDTH $end
$var parameter 32 ^ DWIDTH $end
$var parameter 32 _ FUNCT_WIDTH $end
$var reg 2 ` byte_off_q [1:0] $end
$var reg 3 a funct_q [2:0] $end
$var reg 1 ) me_o_ce $end
$var reg 1 ( me_o_flush $end
$var reg 3 b me_o_funct3 [2:0] $end
$var reg 32 c me_o_load_data [31:0] $end
$var reg 11 d me_o_opcode [10:0] $end
$var reg 5 e me_o_rd_addr [4:0] $end
$var reg 32 f me_o_rd_data [31:0] $end
$var reg 1 " me_o_rd_we $end
$var reg 1 ! me_o_stall $end
$var reg 1 g op_load_q $end
$var reg 11 h opcode_q [10:0] $end
$var reg 1 i pending_request $end
$var reg 5 j rd_addr_q [4:0] $end
$var reg 1 k temp_pending_request $end
$scope module cm $end
$var wire 1 / me_i_ce $end
$var wire 11 l me_i_opcode [10:0] $end
$var wire 1 k temp_pending_request $end
$var wire 1 m op_store $end
$var wire 1 n op_rtype $end
$var wire 1 o op_lui $end
$var wire 1 p op_load $end
$var wire 1 q op_jalr $end
$var wire 1 r op_jal $end
$var wire 1 s op_itype $end
$var wire 1 t op_auipc $end
$var reg 1 V me_o_cyc $end
$var reg 1 T me_o_rd $end
$var reg 1 S me_o_stb $end
$var reg 1 P me_o_we $end
$var reg 1 D rd_we_d $end
$upscope $end
$scope module lt $end
$var wire 2 u byte_off_q [1:0] $end
$var wire 2 v byte_offset_d [1:0] $end
$var wire 3 w me_i_funct3 [2:0] $end
$var wire 32 x me_i_rs2_data [31:0] $end
$var wire 32 y raw [31:0] $end
$var wire 32 z me_i_load_data [31:0] $end
$var parameter 32 { DWIDTH $end
$var parameter 32 | FUNCT_WIDTH $end
$var reg 4 } byte_enable [3:0] $end
$var reg 1 ~ byte_enable_d $end
$var reg 32 !" final_load [31:0] $end
$var reg 32 "" store_data_aligned [31:0] $end
$var reg 32 #" store_data_aligned_d [31:0] $end
$upscope $end
$scope module m $end
$var wire 1 - m_clk $end
$var wire 4 $" m_i_byte_enable [3:0] $end
$var wire 1 V m_i_cyc $end
$var wire 1 T m_i_rd $end
$var wire 1 S m_i_stb $end
$var wire 1 P m_i_we $end
$var wire 1 7 m_rst $end
$var wire 32 %" mask [31:0] $end
$var wire 5 &" m_i_store_addr [4:0] $end
$var wire 5 '" m_i_load_addr [4:0] $end
$var wire 32 (" m_i_data_store [31:0] $end
$var parameter 32 )" AWIDTH $end
$var parameter 37 *" DEPTH $end
$var parameter 32 +" DWIDTH $end
$var reg 32 ," data_reg [31:0] $end
$var reg 5 -" load_addr_reg [4:0] $end
$var reg 1 X m_o_ack $end
$var reg 32 ." m_o_read_data [31:0] $end
$var reg 1 Y m_o_stall $end
$var reg 32 /" mask_reg [31:0] $end
$var reg 1 0" rd_reg $end
$var reg 1 1" req_active $end
$var reg 5 2" store_addr_reg [4:0] $end
$var reg 1 3" we_reg $end
$var integer 32 4" i [31:0] $end
$upscope $end
$scope module td $end
$var wire 32 5" me_i_alu_value [31:0] $end
$var wire 1 / me_i_ce $end
$var wire 11 6" me_i_opcode [10:0] $end
$var wire 5 7" me_i_rd_addr [4:0] $end
$var wire 5 8" mem_addr [4:0] $end
$var wire 32 9" store_data_aligned [31:0] $end
$var wire 1 k temp_pending_request $end
$var wire 1 :" op_store $end
$var wire 1 ;" op_rtype $end
$var wire 1 <" op_lui $end
$var wire 1 =" op_load $end
$var wire 1 >" op_jalr $end
$var wire 1 ?" op_jal $end
$var wire 1 @" op_itype $end
$var wire 1 A" op_auipc $end
$var parameter 32 B" AWIDTH $end
$var parameter 32 C" DWIDTH $end
$var reg 5 D" me_o_load_addr [4:0] $end
$var reg 5 E" me_o_store_addr [4:0] $end
$var reg 32 F" me_o_store_data [31:0] $end
$var reg 5 G" rd_addr_d [4:0] $end
$var reg 32 H" rd_data_d [31:0] $end
$upscope $end
$upscope $end
$scope task do_load $end
$var reg 5 I" addr [4:0] $end
$var reg 3 J" funct3 [2:0] $end
$upscope $end
$scope task do_reset $end
$upscope $end
$scope task do_rtype $end
$var reg 5 K" rd_addr [4:0] $end
$var reg 32 L" rd_data [31:0] $end
$upscope $end
$scope task do_store $end
$var reg 5 M" addr [4:0] $end
$var reg 32 N" data [31:0] $end
$var reg 3 O" funct3 [2:0] $end
$upscope $end
$scope task introduce_stall $end
$var integer 32 P" cycles [31:0] $end
$var integer 32 Q" j [31:0] $end
$upscope $end
$upscope $end
$enddefinitions $end
$comment Show the parameter values. $end
$dumpall
b100000 C"
b101 B"
b100000 +"
b100000 *"
b101 )"
b11 |
b100000 {
b11 _
b100000 ^
b101 ]
b11 ,
b100000 +
b101 *
$end
#0
$dumpvars
bx Q"
bx P"
bx O"
bx N"
bx M"
bx L"
bx K"
bx J"
bx I"
b0 H"
b0 G"
b0 F"
b0 E"
b0 D"
0A"
0@"
0?"
0>"
0="
0<"
0;"
0:"
b0 9"
b0 8"
b0 7"
b0 6"
b0 5"
b100000 4"
x3"
bx 2"
01"
x0"
bx /"
b0 ."
bx -"
bx ,"
b0 ("
b0 '"
b0 &"
b11111111 %"
b1 $"
b0 #"
b0 ""
b0 !"
0~
b1 }
b0 z
b0 y
b0 x
b0 w
b0 v
b0 u
0t
0s
0r
0q
0p
0o
0n
0m
b0 l
0k
b0 j
0i
b0 h
0g
b0 f
b0 e
b0 d
b0 c
b0 b
b0 a
b0 `
b1 \
b0 [
b0 Z
0Y
0X
b0 W
0V
b0 U
0T
0S
b0 R
b0 Q
0P
b0 O
0N
0M
0L
0K
0J
0I
0H
0G
b0 F
b0 E
0D
b0 C
0B
zA
b0 @
b0 ?
b0 >
b0 =
b0 <
b0 ;
bx :
b0 9
08
07
06
b0 5
b0 4
b0 3
b0 2
b0 1
00
0/
b0 .
0-
0)
0(
b0 '
b0 &
b0 %
b0 $
b0 #
0"
0!
$end
#5
b100000 4"
1-
#10
0-
#15
b100000 4"
1-
#20
0-
17
#25
1!
1B
b0 Q"
16
b10 P"
1-
#30
0-
#35
b1 Q"
1-
#40
0-
#45
0B
0!
06
b10 Q"
1-
#50
0-
#55
xB
1)
b1000 %
b1000 d
x!
1S
1V
1P
b10001000100010001000100010001 Q
b10001000100010001000100010001 ("
b10001000100010001000100010001 F"
b10001000100010001000100010001 C
b10001000100010001000100010001 ""
b10001000100010001000100010001 9"
b1 \
b1 }
b1 $"
1G
1m
1:"
18
1/
b10001 5
b10001 @
b10001 x
b1000 2
b1000 =
b1000 l
b1000 6"
b11 :
b0 O"
b10001 N"
b0 M"
1-
#60
0-
#65
0)
11"
00"
13"
b11111111 /"
b10001000100010001000100010001 ,"
b0 2"
b0 -"
1-
#70
0-
#75
1B
01"
1X
1Y
b1111111100000000 %"
b100010001000100010001000000000 C
b100010001000100010001000000000 ""
b100010001000100010001000000000 9"
b10 \
b10 }
b10 $"
b1 [
b1 v
1S
1V
1P
b100010001000100010001000000000 Q
b100010001000100010001000000000 ("
b100010001000100010001000000000 F"
b100010 5
b100010 @
b100010 x
b1 .
b1 ;
b1 5"
b100010 N"
b1 M"
b1000 2
b1000 =
b1000 l
b1000 6"
1/
1-
#80
0-
#85
1B
b1 `
b1 u
b1000 h
1i
b0 %
b0 d
1!
11"
b1111111100000000 /"
b100010001000100010001000000000 ,"
0Y
0X
1-
#90
0-
#95
01"
1X
1Y
0i
1k
0G
0m
0:"
0S
0V
0P
b0 Q
b0 ("
b0 F"
b0 Q"
16
b11 P"
b0 2
b0 =
b0 l
b0 6"
0/
1-
#100
0-
#105
0k
0Y
0X
b1 Q"
1-
#110
0-
#115
b10 Q"
1-
#120
0-
#125
0B
0!
06
b11 Q"
1-
#130
0-
#135
xB
1)
b1000 %
b1000 d
x!
b111111110000000000000000 %"
1S
1V
1P
b110011001100110000000000000000 C
b110011001100110000000000000000 ""
b110011001100110000000000000000 9"
b100 \
b100 }
b100 $"
b10 [
b10 v
b110011001100110000000000000000 Q
b110011001100110000000000000000 ("
b110011001100110000000000000000 F"
1G
1m
1:"
1/
b110011 5
b110011 @
b110011 x
b10 .
b10 ;
b10 5"
b1000 2
b1000 =
b1000 l
b1000 6"
b110011 N"
b10 M"
1-
#140
0-
#145
0)
11"
b111111110000000000000000 /"
b110011001100110000000000000000 ,"
1-
#150
0-
#155
01"
1X
1Y
1!
1B
0G
0m
0:"
0S
0V
0P
b0 Q
b0 ("
b0 F"
b0 Q"
16
b1 P"
b0 2
b0 =
b0 l
b0 6"
0/
1-
#160
0-
#165
0Y
0X
06
b1 Q"
1-
#170
0-
#175
xB
b1 '
b1 b
x!
b1 R
b1 &"
b1 E"
b1 O
b1 8"
b1111111111111111 %"
1S
1V
1P
b0 [
b0 v
b1010101011001100101010101100110 Q
b1010101011001100101010101100110 ("
b1010101011001100101010101100110 F"
b1010101011001100101010101100110 C
b1010101011001100101010101100110 ""
b1010101011001100101010101100110 9"
b11 \
b11 }
b11 $"
1G
1m
1:"
1/
b101010101100110 5
b101010101100110 @
b101010101100110 x
b100 .
b100 ;
b100 5"
b1 1
b1 <
b1 w
b1000 2
b1000 =
b1000 l
b1000 6"
b1 O"
b101010101100110 N"
b100 M"
1-
#180
0-
#185
11"
b1111111111111111 /"
b1010101011001100101010101100110 ,"
b1 2"
1-
#190
0-
#195
1B
01"
1X
1Y
b111111111111111100000000 %"
b10001000011101111000100000000000 C
b10001000011101111000100000000000 ""
b10001000011101111000100000000000 9"
b110 \
b110 }
b110 $"
b1 [
b1 v
1S
1V
1P
b10001000011101111000100000000000 Q
b10001000011101111000100000000000 ("
b10001000011101111000100000000000 F"
b1 R
b1 &"
b1 E"
b111011110001000 5
b111011110001000 @
b111011110001000 x
b101 .
b101 ;
b101 5"
b111011110001000 N"
b101 M"
b1000 2
b1000 =
b1000 l
b1000 6"
1/
1-
#200
0-
#205
1B
b1 a
1i
b0 '
b0 b
1!
11"
b111111111111111100000000 /"
b10001000011101111000100000000000 ,"
0Y
0X
1-
#210
0-
#215
01"
1X
1Y
0i
1k
b10 O
b10 8"
b11111111111111111111111111111111 %"
b0 [
b0 v
b11001010111111101011101010111110 C
b11001010111111101011101010111110 ""
b11001010111111101011101010111110 9"
b1111 \
b1111 }
b1111 $"
0S
0V
0P
b0 Q
b0 ("
b0 F"
b0 R
b0 &"
b0 E"
b11001010111111101011101010111110 5
b11001010111111101011101010111110 @
b11001010111111101011101010111110 x
b1000 .
b1000 ;
b1000 5"
b10 1
b10 <
b10 w
b10 O"
b11001010111111101011101010111110 N"
b1000 M"
b1000 2
b1000 =
b1000 l
b1000 6"
1/
1-
#220
0-
#225
1S
1V
1P
b11001010111111101011101010111110 Q
b11001010111111101011101010111110 ("
b11001010111111101011101010111110 F"
b10 R
b10 &"
b10 E"
b0 `
b0 u
b10 a
1i
b1 '
b1 b
0k
0Y
0X
1-
#230
0-
#235
11"
b11111111111111111111111111111111 /"
b11001010111111101011101010111110 ,"
b10 2"
0i
1k
0G
0m
0:"
0S
0V
0P
b0 Q
b0 ("
b0 F"
b0 R
b0 &"
b0 E"
b0 Q"
16
b10 P"
b0 2
b0 =
b0 l
b0 6"
0/
1-
#240
0-
#245
0k
01"
1X
1Y
b1 Q"
1-
#250
0-
#255
0Y
0X
06
b10 Q"
1-
#260
0-
#265
xB
b0 '
b0 b
b100 %
b100 d
x!
b0 O
b0 8"
b11111111 %"
1S
1V
1T
b0 U
b0 '"
b0 D"
b10111110101111101011111010111110 C
b10111110101111101011111010111110 ""
b10111110101111101011111010111110 9"
b1 \
b1 }
b1 $"
1J
1p
1="
1/
b0 .
b0 ;
b0 5"
b0 1
b0 <
b0 w
b100 2
b100 =
b100 l
b100 6"
b10 :
b0 J"
b0 I"
1-
#270
0-
#275
0B
11"
10"
03"
b11111111 /"
b0 ,"
b0 2"
0!
0S
0V
0T
0/
1-
#280
0-
#285
b10001 Z
b10001 !"
1B
01"
1X
b1100110010001000010001 y
b1100110010001000010001 W
b1100110010001000010001 z
b1100110010001000010001 ."
1Y
1-
#290
0-
#295
0Y
0X
1!
0J
0p
0="
b0 Q"
16
b0 2
b0 =
b0 l
b0 6"
1-
#300
0-
#305
b1 Q"
1-
#310
0-
#315
0B
0!
06
b10 Q"
1-
#320
0-
#325
xB
1)
b100 '
b100 b
x!
b0 %"
1S
1V
1T
b1 [
b1 v
b0 C
b0 ""
b0 9"
b0 \
b0 }
b0 $"
1J
1p
1="
1/
b1 .
b1 ;
b1 5"
b100 1
b100 <
b100 w
b100 2
b100 =
b100 l
b100 6"
b100 J"
b1 I"
1-
#330
0-
#335
0B
11"
b0 /"
0)
0!
0S
0V
0T
0/
1-
#340
0-
#345
1B
01"
1X
1Y
1-
#350
0-
#355
b110011 Z
b110011 !"
0Y
0X
b110011 y
b10 `
b10 u
b100 h
1g
b0 a
1i
b10 '
b10 b
b1000 %
b1000 d
1!
b111111110000000000000000 %"
1S
1V
1T
b10 [
b10 v
b100 \
b100 }
b100 $"
b10111110101111100000000000000000 C
b10111110101111100000000000000000 ""
b10111110101111100000000000000000 9"
1/
b10 .
b10 ;
b10 5"
b0 1
b0 <
b0 w
b0 J"
b10 I"
b100 2
b100 =
b100 l
b100 6"
1-
#360
0-
#365
0i
1k
11"
b111111110000000000000000 /"
0S
0V
0T
0/
1-
#370
0-
#375
01"
1X
1Y
0!
0k
1-
#380
0-
#385
1!
0Y
0X
0J
0p
0="
b0 Q"
16
b1 P"
b0 2
b0 =
b0 l
b0 6"
1-
#390
0-
#395
0B
0!
06
b1 Q"
1-
#400
0-
#405
xB
1)
b100 '
b100 b
b100 %
b100 d
x!
b0 %"
1S
1V
1T
b11 [
b11 v
b0 C
b0 ""
b0 9"
b0 \
b0 }
b0 $"
1J
1p
1="
1/
b11 .
b11 ;
b11 5"
b100 1
b100 <
b100 w
b100 2
b100 =
b100 l
b100 6"
b100 J"
b11 I"
1-
#410
0-
#415
0B
11"
b0 /"
0)
0!
0S
0V
0T
0/
1-
#420
0-
#425
1B
01"
1X
1Y
1-
#430
0-
#435
b10001000010001 Z
b10001000010001 !"
0Y
0X
b1100110010001000010001 y
b0 `
b0 u
b1 a
1i
b110011 &
b110011 c
1"
b0 '
b0 b
1!
b1 U
b1 '"
b1 D"
b1 O
b1 8"
b1111111111111111 %"
1S
1V
1T
b0 [
b0 v
0~
b0 #"
b11 \
b11 }
b11 $"
b10111010101111101011101010111110 C
b10111010101111101011101010111110 ""
b10111010101111101011101010111110 9"
1/
b100 .
b100 ;
b100 5"
b1 1
b1 <
b1 w
b1 J"
b100 I"
b100 2
b100 =
b100 l
b100 6"
1-
#440
0-
#445
0i
1k
11"
b1111111111111111 /"
b1 -"
0S
0V
0T
b0 U
b0 '"
b0 D"
0/
1-
#450
0-
#455
b11111111111111111000100001100110 Z
b11111111111111111000100001100110 !"
01"
1X
b11101111000100001100110 y
b11101111000100001100110 W
b11101111000100001100110 z
b11101111000100001100110 ."
1Y
0!
0k
1-
#460
0-
#465
1B
b101 a
1i
b11111111111111111000100001100110 &
b11111111111111111000100001100110 c
1"
b1 '
b1 b
1!
0Y
0X
b0 %"
1S
1V
1T
b1 U
b1 '"
b1 D"
b0 C
b0 ""
b0 9"
b0 \
b0 }
b0 $"
b1000100001100110 Z
b1000100001100110 !"
1/
b101 1
b101 <
b101 w
b101 J"
b100 2
b100 =
b100 l
b100 6"
1-
#470
0-
#475
11"
b0 /"
0i
1k
0S
0V
0T
b0 U
b0 '"
b0 D"
0/
1-
#480
0-
#485
0!
0k
01"
1X
1Y
1-
#490
0-
#495
0Y
0X
1!
0J
0p
0="
b0 Q"
16
b11 P"
b0 2
b0 =
b0 l
b0 6"
1-
#500
0-
#505
b1 Q"
1-
#510
0-
#515
b10 Q"
1-
#520
0-
#525
0B
0!
06
b11 Q"
1-
#530
0-
#535
xB
1)
0"
x!
b11111111111111110000000000000000 %"
1S
1V
1T
b10 [
b10 v
b1 U
b1 '"
b1 D"
b1100 \
b1100 }
b1100 $"
b10111010101111100000000000000000 C
b10111010101111100000000000000000 ""
b10111010101111100000000000000000 9"
b11111111111111111000100001100110 Z
b11111111111111111000100001100110 !"
1J
1p
1="
1/
b110 .
b110 ;
b110 5"
b1 1
b1 <
b1 w
b100 2
b100 =
b100 l
b100 6"
b1 J"
b110 I"
1-
#540
0-
#545
0B
0)
0!
11"
b11111111111111110000000000000000 /"
0S
0V
0T
b0 U
b0 '"
b0 D"
0/
1-
#550
0-
#555
1B
01"
1X
1Y
1-
#560
0-
#565
1B
b1110111 y
b10 `
b10 u
1i
1"
b101 '
b101 b
1!
0Y
0X
b0 %"
1S
1V
1T
b1 U
b1 '"
b1 D"
b0 C
b0 ""
b0 9"
b0 \
b0 }
b0 $"
b1110111 Z
b1110111 !"
1/
b101 1
b101 <
b101 w
b101 J"
b100 2
b100 =
b100 l
b100 6"
1-
#570
0-
#575
11"
b0 /"
0i
1k
0S
0V
0T
b0 U
b0 '"
b0 D"
0/
1-
#580
0-
#585
0!
0k
01"
1X
1Y
1-
#590
0-
#595
b11101111000100001100110 Z
b11101111000100001100110 !"
0Y
0X
b11101111000100001100110 y
b0 `
b0 u
b10 a
1i
b1110111 &
b1110111 c
1"
1!
b10 O
b10 8"
b11111111111111111111111111111111 %"
1S
1V
1T
b0 [
b0 v
b10 U
b10 '"
b10 D"
b1111 \
b1111 }
b1111 $"
b11001010111111101011101010111110 C
b11001010111111101011101010111110 ""
b11001010111111101011101010111110 9"
1/
b1000 .
b1000 ;
b1000 5"
b10 1
b10 <
b10 w
b10 J"
b1000 I"
b100 2
b100 =
b100 l
b100 6"
1-
#600
0-
#605
0i
1k
11"
b11111111111111111111111111111111 /"
b10 -"
0S
0V
0T
b0 U
b0 '"
b0 D"
0/
1-
#610
0-
#615
b11001010111111101011101010111110 Z
b11001010111111101011101010111110 !"
01"
1X
b11001010111111101011101010111110 y
b11001010111111101011101010111110 W
b11001010111111101011101010111110 z
b11001010111111101011101010111110 ."
1Y
0!
0k
1-
#620
0-
#625
1B
b101 j
b1 h
1i
b11001010111111101011101010111110 &
b11001010111111101011101010111110 c
1"
b10 '
b10 b
1!
0Y
0X
1D
b1000 E
b1000 H"
b101 F
b101 G"
1H
1n
1;"
0J
0p
0="
1/
b10010001101000101011001111000 4
b10010001101000101011001111000 ?
b101 3
b101 >
b101 7"
b0 :
b10010001101000101011001111000 L"
b101 K"
b1 2
b1 =
b1 l
b1 6"
1-
#630
0-
#635
0i
1k
0D
b1000 E
b1000 H"
b101 F
b101 G"
0/
1-
#640
0-
#645
0B
1(
0!
0k
b0 E
b0 H"
b0 F
b0 G"
0H
0n
0;"
10
b0 2
b0 =
b0 l
b0 6"
1-
#650
0-
#655
0(
1!
1B
b0 Q"
16
b100 P"
00
1-
#660
0-
#665
b1 Q"
1-
#670
0-
#675
b10 Q"
1-
#680
0-
#685
b11 Q"
1-
#690
0-
#695
0B
0!
06
b100 Q"
1-
